x,y,z,r,m
0.474954,0.408746,0.479856,	0.00104326,	1.10984
0.470464,0.409781,0.479392,	0.000939590,	0.812265
0.470728,0.406754,0.470657,	0.000480126,	0.108134
0.469392,0.405169,0.470429,	0.000480194,	0.108134
0.442435,0.415166,0.479627,	0.000779260,	0.462714
0.450543,0.407634,0.468454,	0.00125447,	1.92714
0.439811,0.390635,0.489547,	0.000664275,	0.286682
0.440463,0.388616,0.489105,	0.000506049,	0.126576
0.433709,0.434388,0.490934,	0.00192043,	6.97089
0.439749,0.414413,0.479394,	0.000788155,	0.478641
0.445125,0.413753,0.476468,	0.000625286,	0.238901
0.438206,0.385931,0.493362,	0.000773092,	0.450979
0.434769,0.388886,0.487683,	0.000766262,	0.439243
0.429273,0.388348,0.489579,	0.000683337,	0.311829
0.425153,0.384627,0.493318,	0.000644797,	0.262372
0.435332,0.389712,0.484588,	0.000915100,	0.749396
0.417818,0.386939,0.458884,	0.000421018,	0.0729278
0.426582,0.398203,0.445562,	0.000837701,	0.574202
0.429044,0.403650,0.472196,	0.000419144,	0.0720896
0.428543,0.398870,0.474428,	0.000471810,	0.103105
0.431038,0.399237,0.476060,	0.000505786,	0.126576
0.436724,0.413351,0.487269,	0.000489424,	0.114840
0.440663,0.410546,0.467527,	0.000361331,	0.0461038
0.431639,0.399039,0.479104,	0.000478903,	0.107296
0.438882,0.389692,0.491226,	0.000429065,	0.0771191
0.434081,0.407790,0.461495,	0.000629247,	0.243093
0.429936,0.407761,0.474386,	0.000834276,	0.566657
0.423582,0.412436,0.476657,	0.000342595,	0.0393978
0.432479,0.429726,0.489526,	0.000831900,	0.562466
0.419848,0.416467,0.479013,	0.000838118,	0.576716
0.432793,0.395063,0.482409,	0.000657463,	0.278299
0.429347,0.396232,0.476551,	0.000551556,	0.164297
0.421356,0.395485,0.443557,	0.000533324,	0.148370
0.424582,0.398986,0.481796,	0.000322389,	0.0326918
0.425065,0.395574,0.483258,	0.000644215,	0.261534
0.421737,0.415126,0.480660,	0.000537373,	0.151723
0.426724,0.411062,0.478707,	0.000459533,	0.0947223
0.422608,0.402607,0.479797,	0.000436202,	0.0813103
0.426394,0.421970,0.485099,	0.000653020,	0.273270
0.401429,0.397454,0.469724,	0.000485054,	0.111487
0.412933,0.422176,0.477304,	0.00198710,	7.66077
0.421264,0.417286,0.481076,	0.00105603,	1.15092
0.422328,0.416657,0.479716,	0.000332622,	0.0360448
0.429906,0.426758,0.487661,	0.000446655,	0.0871781
0.417663,0.417326,0.478826,	0.000550413,	0.163459
0.404500,0.398727,0.489316,	0.00134433,	2.37728
0.415115,0.414354,0.476932,	0.000634947,	0.250637
0.403379,0.400409,0.471298,	0.000812676,	0.524745
0.420920,0.409351,0.478889,	0.000494347,	0.120708
0.431336,0.427709,0.488197,	0.000573642,	0.184415
0.402327,0.396072,0.471778,	0.000452308,	0.0905311
0.403525,0.396717,0.476403,	0.000448318,	0.0880163
0.401646,0.389960,0.468588,	0.000525154,	0.141664
0.412612,0.392815,0.471042,	0.000700982,	0.336138
0.406430,0.389913,0.481710,	0.000631715,	0.246446
0.412180,0.383614,0.492132,	0.000495496,	0.119032
0.399825,0.407243,0.439424,	0.000351800,	0.0427508
0.399649,0.409047,0.445482,	0.00121842,	1.76703
0.400362,0.418660,0.469192,	0.00127538,	2.02857
0.398616,0.399528,0.429259,	0.00223369,	10.9191
0.397652,0.413744,0.453894,	0.00162012,	4.15353
0.404292,0.393700,0.489025,	0.000537093,	0.151723
0.411544,0.421251,0.474103,	0.000628755,	0.243093
0.400710,0.413509,0.451973,	0.000961939,	0.868428
0.403696,0.402493,0.488547,	0.00102128,	1.04027
0.409325,0.411540,0.474135,	0.000519062,	0.136635
0.400930,0.407473,0.489478,	0.000890905,	0.691557
0.397257,0.403024,0.464617,	0.000650232,	0.268240
0.414684,0.406631,0.467386,	0.000592541,	0.203695
0.404135,0.390999,0.477993,	0.000429975,	0.0779573
0.405808,0.390441,0.480671,	0.000495430,	0.119032
0.399571,0.411626,0.449471,	0.000591577,	0.202018
0.399994,0.411972,0.489556,	0.000583881,	0.194474
0.395566,0.398561,0.465090,	0.00115518,	1.51053
0.399876,0.392889,0.467394,	0.000438976,	0.0829868
0.402497,0.387451,0.469402,	0.000531305,	0.146694
0.400136,0.383647,0.441748,	0.000472538,	0.103105
0.399991,0.392717,0.468390,	0.000487294,	0.113164
0.408453,0.384693,0.465940,	0.000512837,	0.131605
0.412236,0.384631,0.464750,	0.000411178,	0.0678983
0.398926,0.385037,0.465873,	0.000310274,	0.0293388
0.403784,0.386169,0.468445,	0.000424220,	0.0746043
0.398364,0.383678,0.465289,	0.000647966,	0.265725
0.407414,0.389065,0.482585,	0.000490879,	0.115679
0.409508,0.386580,0.490349,	0.000594912,	0.206210
0.404856,0.395517,0.418999,	0.000999850,	0.979077
0.399007,0.403044,0.431239,	0.000161289,	0.00419125
0.398372,0.401506,0.414064,	0.000618809,	0.231357
0.403101,0.404293,0.440489,	0.000454057,	0.0913693
0.412843,0.393972,0.440189,	0.000632471,	0.247284
0.405394,0.400151,0.413526,	0.000443136,	0.0855016
0.403143,0.402018,0.412307,	0.000766106,	0.439243
0.424856,0.395745,0.442403,	0.000490881,	0.115679
0.412556,0.402275,0.423692,	0.000514773,	0.133282
0.430858,0.407553,0.446288,	0.000663369,	0.285843
0.422082,0.401478,0.436442,	0.000607678,	0.219622
0.422473,0.391268,0.441260,	0.000765549,	0.438405
0.420379,0.405253,0.436298,	0.000612107,	0.223813
0.393853,0.415716,0.388735,	0.000811052,	0.520554
0.385091,0.426929,0.403906,	0.00210664,	9.15034
0.403698,0.431206,0.381674,	0.000566620,	0.177709
0.387966,0.491181,0.398544,	0.000452480,	0.0905311
0.384824,0.448976,0.388692,	0.000843739,	0.586775
0.367998,0.487288,0.401820,	0.000569543,	0.181062
0.370887,0.492234,0.398799,	0.000742509,	0.399846
0.369587,0.480557,0.404580,	0.000667916,	0.291711
0.385466,0.448705,0.394117,	0.000677736,	0.304285
0.433215,0.435567,0.380670,	0.000463340,	0.0972371
0.464415,0.445210,0.412811,	0.000641800,	0.258181
0.459665,0.449908,0.418720,	0.000574116,	0.185253
0.469237,0.451453,0.413144,	0.000857940,	0.618629
0.480800,0.440003,0.415107,	0.000444155,	0.0855016
0.466797,0.481922,0.430133,	0.000483709,	0.110649
0.468868,0.483131,0.429739,	0.000428931,	0.0771191
0.468635,0.453083,0.415743,	0.000481264,	0.108973
0.461077,0.497888,0.431520,	0.00124886,	1.90451
0.463131,0.448067,0.414522,	0.000485180,	0.111487
0.464118,0.493915,0.429366,	0.000664622,	0.286682
0.455507,0.484461,0.432879,	0.00100652,	0.998356
0.440582,0.466410,0.432172,	0.000668837,	0.328594
0.440078,0.469112,0.432842,	0.000363539,	0.0469420
0.441568,0.487961,0.436624,	0.000805768,	0.510495
0.451144,0.477982,0.445174,	0.000396592,	0.0611923
0.453000,0.480330,0.443233,	0.000769136,	0.445111
0.454227,0.495952,0.432476,	0.000782149,	0.466906
0.458591,0.482678,0.438066,	0.000463189,	0.0972371
0.445840,0.482017,0.439632,	0.000680227,	0.307638
0.451336,0.495526,0.432955,	0.000755869,	0.421640
0.449126,0.474155,0.450375,	0.000532340,	0.147532
0.465024,0.504317,0.444729,	0.000798559,	0.497921
0.451061,0.483838,0.444811,	0.000472515,	0.103105
0.454395,0.482613,0.440229,	0.000304899,	0.0276623
0.468126,0.505077,0.442923,	0.00146046,	3.04369
0.464501,0.486412,0.435933,	0.000460871,	0.0955606
0.466250,0.498095,0.440265,	0.000537715,	0.151723
0.458907,0.498311,0.432291,	0.000351456,	0.0427508
0.463050,0.481616,0.431827,	0.000656144,	0.275784
0.458450,0.496699,0.433383,	0.000395268,	0.0603540
0.448042,0.503383,0.451744,	0.000536105,	0.150885
0.441919,0.465831,0.451842,	0.000639034,	0.254828
0.440227,0.471647,0.451289,	0.000493470,	0.117355
0.458217,0.450789,0.447680,	0.000677119,	0.304285
0.446477,0.466903,0.450246,	0.00107001,	1.19702
0.459234,0.460234,0.434408,	0.000468564,	0.105620
0.461013,0.452389,0.453320,	0.000402387,	0.0637070
0.437802,0.472035,0.443347,	0.000560188,	0.171841
0.456361,0.459140,0.450945,	0.000593107,	0.204533
0.447876,0.482514,0.444323,	0.000505921,	0.126576
0.467820,0.445566,0.434698,	0.000535454,	0.150047
0.459169,0.461178,0.433503,	0.000584236,	0.210401
0.484255,0.440922,0.425147,	0.000794489,	0.489538
0.459815,0.475899,0.441338,	0.000479066,	0.107296
0.479521,0.454445,0.442703,	0.000576182,	0.186930
0.484868,0.456056,0.438459,	0.000400470,	0.0628688
0.478217,0.449638,0.443309,	0.000785004,	0.472773
0.473301,0.452330,0.447715,	0.000526324,	0.142503
0.453002,0.465527,0.452124,	0.000479795,	0.108134
0.448677,0.472885,0.451859,	0.000794716,	0.490377
0.480410,0.499457,0.453187,	0.000676121,	0.302608
0.470463,0.482592,0.434328,	0.00103744,	1.09224
0.472293,0.481208,0.435082,	0.000589617,	0.200342
0.477902,0.476854,0.447635,	0.000475205,	0.104781
0.472846,0.483290,0.433185,	0.000464589,	0.0980753
0.479078,0.509059,0.472719,	0.00150352,	3.32618
0.478709,0.507008,0.468183,	0.000463213,	0.0972371
0.488118,0.483781,0.476201,	0.00109281,	1.27498
0.472026,0.505631,0.474782,	0.000500542,	0.122385
0.482895,0.491708,0.474442,	0.000544267,	0.157591
0.474021,0.502790,0.475111,	0.000609546,	0.221298
0.486634,0.497959,0.473948,	0.000586579,	0.196989
0.487789,0.489341,0.475681,	0.000597655,	0.208724
0.458441,0.498584,0.464961,	0.000433574,	0.0796338
0.473475,0.505176,0.474593,	0.000534752,	0.156753
0.445301,0.482313,0.461240,	0.000781840,	0.467744
0.445340,0.474755,0.457376,	0.000621883,	0.234710
0.435415,0.492132,0.470673,	0.000608998,	0.220460
0.435867,0.500366,0.469040,	0.000463552,	0.0972371
0.458747,0.503932,0.468415,	0.000520034,	0.141664
0.430921,0.470468,0.487602,	0.000572626,	0.183577
0.424419,0.462901,0.495904,	0.000468307,	0.100590
0.456160,0.503088,0.483338,	0.000466994,	0.0997518
0.426301,0.471937,0.490883,	0.000583977,	0.196989
0.446469,0.477263,0.486639,	0.000463136,	0.0972371
0.443768,0.474233,0.460216,	0.000666005,	0.288358
0.428370,0.458301,0.497217,	0.000700889,	0.336977
0.433947,0.448817,0.502049,	0.00529729,	145.725
0.432763,0.479485,0.496998,	0.000494617,	0.118193
0.420779,0.460554,0.498863,	0.00130822,	2.19622
0.423413,0.468292,0.495958,	0.000503699,	0.124899
0.424385,0.458888,0.499383,	0.000398813,	0.0620305
0.483485,0.501780,0.486219,	0.000694220,	0.326918
0.484782,0.482294,0.500309,	0.000430138,	0.0779573
0.426245,0.466882,0.496963,	0.000404276,	0.0645453
0.427487,0.468081,0.496437,	0.000483616,	0.110649
0.450084,0.485054,0.493208,	0.000586596,	0.196989
0.486296,0.474900,0.503998,	0.00186143,	6.31203
0.482250,0.478363,0.484290,	0.000569037,	0.180224
0.469043,0.481241,0.485802,	0.000517668,	0.135797
0.472390,0.478476,0.486943,	0.000550649,	0.163459
0.478650,0.497283,0.479337,	0.000485764,	0.112326
0.474323,0.509884,0.476705,	0.000500150,	0.122385
0.487727,0.486099,0.483136,	0.000601752,	0.212916
0.451938,0.440247,0.505738,	0.00167143,	4.58355
0.455483,0.442336,0.503186,	0.000601671,	0.214592
0.462375,0.449855,0.491420,	0.000623646,	0.237225
0.454950,0.447378,0.496972,	0.000442477,	0.0846633
0.463943,0.453174,0.517913,	0.00255764,	16.3476
0.434777,0.446544,0.506335,	0.000580764,	0.191121
0.432909,0.453597,0.492910,	0.000736697,	0.390625
0.440522,0.458285,0.498175,	0.000479031,	0.107296
0.463362,0.450739,0.457927,	0.000599110,	0.210401
0.469187,0.453598,0.457937,	0.000602755,	0.214592
0.463703,0.453268,0.459925,	0.000485260,	0.111487
0.462929,0.453640,0.468487,	0.000603585,	0.214592
0.457664,0.456267,0.461404,	0.000573381,	0.184415
0.454407,0.444240,0.484537,	0.000587487,	0.197827
0.467333,0.450788,0.465364,	0.000509129,	0.129091
0.477384,0.421685,0.467609,	0.000520877,	0.138311
0.471354,0.430863,0.469627,	0.000428628,	0.0771191
0.478796,0.424051,0.467404,	0.000746066,	0.406552
0.479689,0.458967,0.470419,	0.000583173,	0.193636
0.471907,0.421045,0.469271,	0.000438274,	0.0821486
0.480223,0.425457,0.466574,	0.000449452,	0.0888546
0.455917,0.436019,0.477465,	0.000386967,	0.0570010
0.434658,0.433122,0.470653,	0.000510631,	0.129929
0.455397,0.424481,0.462468,	0.000523467,	0.139988
0.462470,0.426677,0.470931,	0.000620288,	0.233034
0.467996,0.430186,0.468024,	0.000634319,	0.249799
0.469041,0.425078,0.469128,	0.000729399,	0.379728
0.448825,0.440785,0.476764,	0.000414010,	0.0695748
0.456586,0.422751,0.460114,	0.000788000,	0.479479
0.453622,0.437149,0.480451,	0.000593990,	0.204533
0.446000,0.438334,0.488532,	0.000482343,	0.109811
0.442419,0.441134,0.499178,	0.00246944,	14.7188
0.441430,0.440956,0.503902,	0.000440700,	0.0838251
0.448341,0.439820,0.488914,	0.000432101,	0.0787956
0.458411,0.440151,0.508758,	0.000387911,	0.0570010
0.459368,0.440223,0.511629,	0.00123789,	1.85337
0.474052,0.433514,0.492573,	0.000476072,	0.105620
0.456431,0.431639,0.499228,	0.00106423,	1.18026
0.452119,0.438995,0.509462,	0.000522104,	0.139150
0.479911,0.434969,0.478026,	0.000461849,	0.0963988
0.471003,0.425833,0.494334,	0.000478609,	0.107296
0.473034,0.430825,0.495237,	0.000652640,	0.271593
0.473387,0.415206,0.482068,	0.000432035,	0.0787956
0.470623,0.422818,0.490458,	0.000591701,	0.202857
0.472229,0.423633,0.492186,	0.000544163,	0.157591
0.467615,0.412621,0.481455,	0.000508343,	0.128252
0.455649,0.434078,0.499268,	0.000438297,	0.0821486
0.477766,0.422087,0.494103,	0.000469960,	0.101428
0.438832,0.442111,0.501222,	0.000464865,	0.0980753
0.436879,0.434827,0.495215,	0.00135730,	2.44602
0.436557,0.438549,0.497376,	0.000674699,	0.300094
0.438592,0.437628,0.498337,	0.000474473,	0.104781
0.445363,0.437185,0.497977,	0.000712948,	0.353742
0.462884,0.416260,0.484512,	0.000748754,	0.410743
0.457758,0.420667,0.488694,	0.000688470,	0.318535
0.460482,0.418942,0.456413,	0.00108852,	1.26324
0.464418,0.421460,0.474427,	0.000693818,	0.326918
0.455929,0.412116,0.469724,	0.000522025,	0.139150
0.441589,0.416397,0.480538,	0.000400743,	0.0628688
0.451077,0.422439,0.457073,	0.000675230,	0.300932
0.440320,0.422051,0.485938,	0.000441908,	0.0871781
0.433075,0.429812,0.471711,	0.000520306,	0.137473
0.445810,0.419313,0.483496,	0.000487064,	0.113164
0.440859,0.434712,0.493184,	0.000396886,	0.0611923
0.459074,0.406764,0.468349,	0.000580185,	0.191121
0.473842,0.409842,0.468243,	0.000467300,	0.0997518
0.469322,0.408283,0.470429,	0.000424291,	0.0746043
0.466207,0.415479,0.458653,	0.000572017,	0.182739
0.471185,0.410047,0.476016,	0.000611116,	0.222975
0.472522,0.416490,0.470671,	0.00108800,	1.25738
0.473390,0.414000,0.469512,	0.000304464,	0.0276623
0.469523,0.418515,0.471818,	0.000539150,	0.153400
0.466036,0.416116,0.456864,	0.000499040,	0.121546
0.483905,0.442543,0.429526,	0.000658074,	0.278299
0.458655,0.426093,0.457189,	0.000473715,	0.103943
0.466592,0.434184,0.403265,	0.000891935,	0.695748
0.470320,0.431294,0.410985,	0.000838146,	0.575878
0.472264,0.428360,0.413139,	0.000546414,	0.159268
0.470157,0.438542,0.404339,	0.000490039,	0.114840
0.476808,0.437180,0.408617,	0.000494622,	0.126576
0.451102,0.417446,0.437247,	0.000663480,	0.285843
0.448788,0.420106,0.453592,	0.000560984,	0.182739
0.446674,0.418350,0.438691,	0.000543028,	0.156753
0.455752,0.417752,0.436441,	0.000508292,	0.129929
0.448230,0.418134,0.438550,	0.000587090,	0.197827
0.454899,0.418112,0.440879,	0.000480884,	0.117355
0.455003,0.419092,0.451779,	0.000547083,	0.160106
0.420209,0.414959,0.438112,	0.000552735,	0.165135
0.409793,0.415994,0.441396,	0.000644697,	0.261534
0.407095,0.417751,0.442167,	0.000994118,	0.959797
0.419002,0.417970,0.444214,	0.000652910,	0.271593
0.400614,0.426861,0.446133,	0.00129465,	2.12329
0.421116,0.415594,0.444463,	0.000634877,	0.249799
0.428512,0.409268,0.445301,	0.000572844,	0.183577
0.425753,0.411611,0.444689,	0.000449683,	0.0888546
0.419721,0.419904,0.446534,	0.000603285,	0.214592
0.431719,0.409269,0.449157,	0.000435225,	0.0804721
0.437298,0.420334,0.454533,	0.000608416,	0.220460
0.412903,0.429600,0.419771,	0.000381586,	0.0544863
0.407827,0.432966,0.408002,	0.000518187,	0.135797
0.407859,0.433528,0.457735,	0.000903832,	0.720896
0.415170,0.428878,0.454076,	0.000460190,	0.0955606
0.407713,0.429252,0.454219,	0.000693260,	0.326079
0.403500,0.437680,0.461575,	0.00128166,	2.06377
0.409015,0.429773,0.454827,	0.000587996,	0.198665
0.426868,0.428064,0.452713,	0.000567613,	0.178547
0.390755,0.440481,0.439265,	0.000477815,	0.106458
0.391360,0.434945,0.443275,	0.00134882,	2.39824
0.418722,0.425270,0.450765,	0.000257910,	0.0167650
0.417129,0.426427,0.451411,	0.000583015,	0.193636
0.403870,0.446958,0.452418,	0.000463560,	0.0972371
0.390364,0.439026,0.441926,	0.000787935,	0.477803
0.408423,0.431442,0.458675,	0.000445221,	0.0863398
0.385542,0.457186,0.458853,	0.00374537,	51.4644
0.395072,0.447386,0.461353,	0.000870452,	0.648806
0.428484,0.428711,0.451259,	0.000581947,	0.192798
0.391216,0.425145,0.429403,	0.000337732,	0.0377213
0.389919,0.427719,0.429470,	0.000881237,	0.668086
0.395110,0.435431,0.449304,	0.00124020,	1.86343
0.400305,0.432328,0.448462,	0.000970418,	0.896928
0.389053,0.434116,0.439320,	0.000485215,	0.111487
0.397739,0.423026,0.440339,	0.000459016,	0.0947223
0.390063,0.436556,0.423986,	0.000400602,	0.0628688
0.388725,0.424816,0.405033,	0.00125115,	1.91624
0.390527,0.424570,0.426961,	0.000742574,	0.400684
0.398744,0.411042,0.425006,	0.000307384,	0.0285005
0.397620,0.415393,0.429827,	0.00130600,	2.18197
0.377474,0.438108,0.413788,	0.00112803,	1.40156
0.392012,0.421702,0.424668,	0.000460714,	0.0955606
0.386566,0.428048,0.426441,	0.000990387,	0.950576
0.402445,0.403329,0.414153,	0.000452418,	0.0905311
0.394741,0.411616,0.415834,	0.000529371,	0.145017
0.391533,0.423712,0.424735,	0.000609364,	0.221298
0.392684,0.422135,0.427020,	0.000446300,	0.0871781
0.395876,0.426619,0.437477,	0.000321527,	0.0326918
0.400315,0.422100,0.442017,	0.00118881,	1.64129
0.398492,0.404850,0.423566,	0.000544522,	0.157591
0.399803,0.416298,0.440398,	0.000657617,	0.278299
0.399674,0.421310,0.438414,	0.000359144,	0.0452655
0.397716,0.425742,0.439855,	0.000618471,	0.231357
0.401944,0.430130,0.475780,	0.00124686,	1.89445
0.400949,0.439010,0.459857,	0.000441878,	0.0846633
0.401595,0.445733,0.480501,	0.00147912,	3.17362
0.405644,0.420497,0.472339,	0.000448211,	0.0880163
0.401685,0.423560,0.472946,	0.000735460,	0.388948
0.402932,0.424126,0.474931,	0.000871124,	0.646291
0.397889,0.420804,0.433125,	0.000447177,	0.0922076
0.402774,0.433329,0.453204,	0.000583221,	0.194474
0.429856,0.430682,0.469843,	0.000640645,	0.257343
0.410063,0.434903,0.461429,	0.000425807,	0.0754426
0.403584,0.434803,0.455396,	0.000797257,	0.495406
0.419897,0.435431,0.470010,	0.000516778,	0.134958
0.418202,0.440714,0.478344,	0.00107815,	1.22301
0.396521,0.423340,0.445356,	0.000791245,	0.483671
0.401484,0.440578,0.459461,	0.000877627,	0.659703
0.430103,0.432598,0.491403,	0.000988742,	0.943032
0.434888,0.422815,0.487818,	0.000480308,	0.108134
0.426507,0.428442,0.486107,	0.00123835,	1.85421
0.431557,0.439945,0.488695,	0.000517272,	0.135797
0.427875,0.440427,0.485444,	0.000650234,	0.269078
0.416303,0.423154,0.475878,	0.000400658,	0.0628688
0.406127,0.424739,0.474967,	0.000261680,	0.0176033
0.421468,0.425727,0.481674,	0.000665379,	0.288358
0.411953,0.426594,0.481776,	0.000529111,	0.145017
0.410850,0.427074,0.483580,	0.000394941,	0.0603540
0.405252,0.422587,0.472294,	0.000383877,	0.0553245
0.400194,0.413322,0.489537,	0.000524003,	0.140826
0.400303,0.415382,0.488636,	0.000376110,	0.0519715
0.418127,0.448573,0.490556,	0.00137026,	2.52230
0.410824,0.449052,0.485986,	0.000537147,	0.151723
0.406129,0.454311,0.490896,	0.00137375,	2.54577
0.402828,0.435362,0.478239,	0.000732190,	0.383919
0.405323,0.451516,0.484778,	0.000367778,	0.0486185
0.416588,0.447438,0.485937,	0.000818270,	0.534804
0.423707,0.449532,0.494025,	0.000499856,	0.122385
0.404899,0.456475,0.488673,	0.000864124,	0.636232
0.425393,0.447816,0.495427,	0.000482834,	0.110649
0.403843,0.438295,0.479163,	0.000416187,	0.0704131
0.401039,0.453110,0.485206,	0.00108627,	1.25235
0.402455,0.433538,0.477227,	0.000414482,	0.0695748
0.396290,0.451746,0.478987,	0.00142162,	2.80814
0.410149,0.462156,0.498857,	0.00113296,	1.42503
0.413507,0.439362,0.473286,	0.000968222,	0.888546
0.430870,0.439568,0.492278,	0.000520936,	0.138311
0.414551,0.435529,0.468506,	0.000487049,	0.113164
0.400530,0.440317,0.456612,	0.000430711,	0.0779573
0.394721,0.445683,0.462807,	0.000554686,	0.166812
0.417989,0.434751,0.469000,	0.000464573,	0.0980753
0.433134,0.434168,0.476062,	0.000591131,	0.202018
0.402771,0.439586,0.458868,	0.000464946,	0.0980753
0.412891,0.440829,0.470931,	0.000629673,	0.243931
0.410510,0.443170,0.476303,	0.000424950,	0.0846633
0.402989,0.437482,0.459561,	0.000459452,	0.0947223
0.403729,0.437832,0.457324,	0.000483690,	0.110649
0.391827,0.449098,0.460748,	0.000641241,	0.257343
0.387681,0.456260,0.469837,	0.000994546,	0.962312
0.388698,0.454866,0.478344,	0.00322155,	32.6700
0.397523,0.461811,0.472324,	0.000870885,	0.645453
0.387558,0.456612,0.465124,	0.000465750,	0.0989136
0.392729,0.460523,0.468140,	0.000815891,	0.532289
0.393345,0.459483,0.471540,	0.000454920,	0.0922076
0.400718,0.464314,0.483076,	0.000609573,	0.221298
0.409949,0.459138,0.489263,	0.000903061,	0.720896
0.421454,0.464368,0.490395,	0.000446796,	0.0871781
0.403771,0.459003,0.480985,	0.000475070,	0.104781
0.414768,0.452661,0.490487,	0.000714754,	0.357095
0.414771,0.465601,0.498971,	0.00232035,	12.2728
0.426349,0.464440,0.482241,	0.000497888,	0.120708
0.419398,0.462733,0.497250,	0.000509566,	0.129091
0.418430,0.461103,0.490652,	0.000448488,	0.0880163
0.415162,0.455400,0.492158,	0.000407475,	0.0662218
0.418975,0.463405,0.492756,	0.000488796,	0.114840
0.410583,0.467895,0.487074,	0.000445332,	0.0863398
0.414949,0.458735,0.491460,	0.000613041,	0.225489
0.414910,0.460068,0.493385,	0.000395240,	0.0603540
0.413947,0.462496,0.494899,	0.000476291,	0.105620
0.410293,0.468009,0.506924,	0.00465894,	98.8331
0.406029,0.479566,0.504119,	0.00170239,	4.82832
0.407854,0.474704,0.503468,	0.000450968,	0.0896928
0.405247,0.484725,0.506961,	0.00105317,	1.14337
0.403040,0.492258,0.503994,	0.00324575,	33.5233
0.405817,0.497446,0.497874,	0.00128423,	2.06796
0.402764,0.480012,0.501751,	0.000385266,	0.0561628
0.401930,0.488774,0.511918,	0.00239205,	13.4103
0.403273,0.485457,0.498996,	0.000422338,	0.0737661
0.416043,0.480551,0.497385,	0.000409601,	0.0670601
0.408809,0.474925,0.497656,	0.000371972,	0.0502950
0.410490,0.472212,0.497438,	0.000453934,	0.0913693
0.416836,0.470261,0.496370,	0.000466096,	0.0989136
0.419007,0.465630,0.494127,	0.000610179,	0.222136
0.430454,0.492799,0.477237,	0.000432167,	0.0787956
0.417728,0.496616,0.459104,	0.000707857,	0.347036
0.400199,0.494824,0.451423,	0.000896706,	0.705807
0.381297,0.472569,0.461096,	0.00151262,	3.37899
0.380395,0.477420,0.461394,	0.00103127,	1.07045
0.388339,0.487924,0.466902,	0.000417936,	0.0712513
0.404941,0.466332,0.479542,	0.000452488,	0.0905311
0.404913,0.501698,0.491623,	0.000814753,	0.528098
0.396729,0.490872,0.448147,	0.00128172,	2.05623
0.389844,0.487826,0.469239,	0.000494709,	0.118193
0.382048,0.481818,0.437881,	0.00176830,	5.41342
0.386868,0.483546,0.442017,	0.00153417,	3.53155
0.381967,0.468818,0.442240,	0.00183514,	6.03373
0.380372,0.486348,0.432023,	0.000841085,	0.582584
0.393791,0.491980,0.454556,	0.000484822,	0.111487
0.389193,0.485690,0.444254,	0.000426619,	0.0762808
0.391129,0.487236,0.447684,	0.000513365,	0.132444
0.383670,0.464056,0.446514,	0.000602585,	0.213754
0.382269,0.472366,0.438324,	0.000436408,	0.0813103
0.380727,0.459228,0.440097,	0.000982420,	0.927105
0.439403,0.467039,0.434854,	0.000407288,	0.0662218
0.437471,0.472732,0.439175,	0.000519273,	0.136635
0.424613,0.479457,0.439750,	0.000676877,	0.302608
0.427037,0.454547,0.454139,	0.000484695,	0.111487
0.436132,0.475924,0.436059,	0.000909862,	0.735984
0.439741,0.470751,0.449242,	0.000509375,	0.129091
0.436918,0.473015,0.440376,	0.000460053,	0.0955606
0.407614,0.453135,0.449736,	0.000406869,	0.0871781
0.434727,0.490451,0.449153,	0.000817861,	0.535642
0.408092,0.494404,0.446859,	0.000465605,	0.0989136
0.431885,0.485250,0.440143,	0.000870498,	0.645453
0.429639,0.479023,0.439623,	0.000645498,	0.263211
0.434780,0.478508,0.438042,	0.000449618,	0.0888546
0.429655,0.475138,0.441666,	0.000506121,	0.126576
0.434885,0.481532,0.439989,	0.000536626,	0.150885
0.410093,0.499290,0.447021,	0.000726276,	0.375536
0.426018,0.478549,0.436047,	0.000445261,	0.0863398
0.432216,0.493106,0.445208,	0.000473933,	0.103943
0.435080,0.475717,0.433688,	0.000729843,	0.379728
0.394300,0.493317,0.432226,	0.000852730,	0.606893
0.438385,0.495822,0.431824,	0.000516950,	0.134958
0.417135,0.475930,0.427657,	0.000600476,	0.211239
0.427252,0.497142,0.426188,	0.000445380,	0.0863398
0.434355,0.482201,0.436940,	0.000432052,	0.0787956
0.365282,0.478981,0.410234,	0.00118048,	1.60525
0.383687,0.448137,0.396644,	0.000509453,	0.129091
0.370436,0.447006,0.409363,	0.000475324,	0.104781
0.366788,0.473488,0.406725,	0.000355773,	0.0444273
0.372078,0.456580,0.411736,	0.000558370,	0.170165
0.366976,0.480618,0.416394,	0.000464752,	0.0980753
0.373592,0.462259,0.427131,	0.000900217,	0.715866
0.367229,0.478979,0.433344,	0.00234114,	12.5469
0.382499,0.488846,0.429890,	0.00114485,	1.46778
0.384283,0.495106,0.426714,	0.000667961,	0.292549
0.382722,0.489671,0.423102,	0.000605651,	0.217107
0.367653,0.480903,0.417951,	0.000513751,	0.132444
0.383363,0.497458,0.422637,	0.000510310,	0.129929
0.366342,0.490858,0.410048,	0.000740294,	0.396493
0.368675,0.488717,0.400060,	0.000467471,	0.0997518
0.362354,0.476002,0.413132,	0.00144502,	2.95651
0.367051,0.478189,0.423325,	0.000322152,	0.0326918
0.359845,0.489352,0.405322,	0.00129662,	2.12999
0.374547,0.469140,0.430847,	0.000452499,	0.0905311
0.366136,0.477743,0.421107,	0.000751653,	0.415772
0.368246,0.447263,0.406855,	0.000759491,	0.430023
0.370652,0.450829,0.411272,	0.000443702,	0.0855016
0.364641,0.453837,0.404015,	0.00167793,	4.61205
0.370767,0.462567,0.418354,	0.000475170,	0.104781
0.361674,0.461631,0.404873,	0.000852588,	0.608570
0.371604,0.454399,0.414181,	0.000379822,	0.0536480
0.361648,0.466443,0.402869,	0.000431886,	0.0787956
0.361825,0.478623,0.412717,	0.000181495,	0.00586775
0.372736,0.442096,0.408581,	0.00123674,	1.85086
0.360245,0.473074,0.414259,	0.000526206,	0.142503
0.360303,0.470735,0.414179,	0.000608856,	0.220460
0.353132,0.464999,0.398055,	0.000574208,	0.185253
0.351675,0.475332,0.406955,	0.000986623,	0.939679
0.358224,0.485595,0.404873,	0.000825276,	0.552407
0.353147,0.459981,0.399276,	0.000522292,	0.139988
0.348683,0.474040,0.406441,	0.00100725,	1.00087
0.355545,0.473252,0.426533,	0.00200072,	7.82339
0.351986,0.474000,0.405120,	0.000499331,	0.121546
0.357760,0.468330,0.429126,	0.000515475,	0.134120
0.357322,0.476208,0.432595,	0.000502383,	0.124061
0.356920,0.470458,0.428005,	0.000432149,	0.0787956
0.365063,0.483431,0.439414,	0.000834748,	0.567496
0.369663,0.485119,0.446264,	0.00125831,	1.95145
0.354722,0.477488,0.430924,	0.000354693,	0.0435890
0.349489,0.470523,0.417330,	0.000890780,	0.691557
0.350346,0.480462,0.433142,	0.00141208,	2.75449
0.358361,0.481990,0.439511,	0.00101899,	1.03356
0.360962,0.487455,0.438176,	0.000763837,	0.435052
0.372391,0.456169,0.434741,	0.000991225,	0.951414
0.371955,0.475371,0.445677,	0.000648883,	0.268240
0.374574,0.460758,0.429867,	0.000459203,	0.0947223
0.374540,0.473558,0.447935,	0.000496204,	0.119870
0.365333,0.456458,0.429597,	0.000852749,	0.605217
0.373466,0.463152,0.441248,	0.000356785,	0.0444273
0.364619,0.461707,0.432113,	0.000473950,	0.103943
0.375304,0.473393,0.449463,	0.000428975,	0.0771191
0.382354,0.465043,0.455724,	0.00127112,	2.01180
0.364355,0.459190,0.429831,	0.000676875,	0.303447
0.378908,0.468926,0.455978,	0.000581957,	0.192798
0.376786,0.471452,0.454281,	0.000642433,	0.259019
0.382938,0.466862,0.461663,	0.000316291,	0.0310153
0.378636,0.481123,0.462588,	0.000864252,	0.631203
0.378753,0.472073,0.457774,	0.000281388,	0.0217945
0.376405,0.480244,0.430481,	0.000620596,	0.233872
0.374042,0.488700,0.452559,	0.000889836,	0.689880
0.385084,0.471219,0.470864,	0.000707870,	0.347874
0.387166,0.472065,0.475988,	0.000452416,	0.0905311
0.386957,0.471660,0.473758,	0.000527224,	0.143341
0.380412,0.482751,0.466363,	0.000543997,	0.157591
0.371880,0.479468,0.449413,	0.000440949,	0.0955606
0.374626,0.482181,0.454236,	0.000727362,	0.375536
0.372247,0.489781,0.452692,	0.000530191,	0.145856
0.371873,0.481938,0.446849,	0.000851274,	0.605217
0.375554,0.483445,0.455571,	0.000677531,	0.304285
0.378616,0.477679,0.459605,	0.000481220,	0.108973
0.375943,0.488825,0.471140,	0.000435104,	0.0804721
0.372465,0.490254,0.456248,	0.000665180,	0.288358
0.374653,0.486336,0.455384,	0.000547423,	0.160106
0.362490,0.490689,0.457345,	0.000433725,	0.0796338
0.362081,0.488819,0.453089,	0.00113030,	1.40994
0.363111,0.491974,0.459286,	0.000422661,	0.0737661
0.373162,0.478326,0.446717,	0.000403846,	0.0645453
0.376838,0.471060,0.450539,	0.00104835,	1.12577
0.362565,0.485009,0.446187,	0.000573351,	0.184415
0.380768,0.472409,0.457348,	0.000669762,	0.293388
0.366986,0.488623,0.457881,	0.00100857,	1.00255
0.370542,0.493578,0.468319,	0.00100146,	0.986621
0.359941,0.484287,0.444148,	0.000633717,	0.248960
0.368505,0.495709,0.469605,	0.000850944,	0.603540
0.368462,0.497972,0.484640,	0.000285140,	0.0226328
0.366490,0.489996,0.462177,	0.000543559,	0.156753
0.378953,0.476648,0.455522,	0.000526400,	0.142503
0.365517,0.487549,0.454438,	0.000430121,	0.0779573
0.374522,0.483194,0.470320,	0.000536841,	0.151723
0.364496,0.485966,0.458006,	0.000950938,	0.841604
0.368261,0.488903,0.460650,	0.000511877,	0.131605
0.374123,0.498534,0.490730,	0.000995109,	0.963988
0.366566,0.495958,0.472225,	0.000677842,	0.304285
0.368322,0.490515,0.470237,	0.000514514,	0.133282
0.369009,0.497998,0.493670,	0.00104396,	1.11068
0.372406,0.487257,0.464855,	0.000601795,	0.212916
0.371730,0.498135,0.495004,	0.000981065,	0.922914
0.363028,0.483830,0.455956,	0.000683716,	0.313506
0.366668,0.498839,0.479871,	0.000551566,	0.164297
0.361496,0.503693,0.498062,	0.00201119,	7.94159
0.358370,0.499763,0.461988,	0.000717080,	0.360448
0.375388,0.473618,0.484772,	0.000580655,	0.191121
0.382829,0.489673,0.482933,	0.000361092,	0.0461038
0.378031,0.470625,0.487310,	0.00122137,	1.78296
0.393568,0.497102,0.493402,	0.000673316,	0.299255
0.396915,0.497095,0.495118,	0.000578833,	0.189445
0.399795,0.496899,0.498127,	0.000519822,	0.137473
0.396791,0.491687,0.493910,	0.000548411,	0.160944
0.378564,0.473448,0.490443,	0.000349720,	0.0419125
0.374580,0.496058,0.494923,	0.000440040,	0.0838251
0.401208,0.497703,0.500452,	0.000557770,	0.170165
0.391134,0.485576,0.487719,	0.000479825,	0.108134
0.389814,0.476553,0.481281,	0.000498857,	0.121546
0.390134,0.483626,0.484734,	0.000450740,	0.0896928
0.365469,0.500966,0.495940,	0.000398402,	0.0620305
0.385808,0.475359,0.495554,	0.000528411,	0.144179
0.395107,0.479232,0.489910,	0.000416029,	0.0704131
0.397133,0.479238,0.492861,	0.000454066,	0.0913693
0.407213,0.483534,0.502428,	0.000550897,	0.163459
0.397085,0.462727,0.494305,	0.00111244,	1.34372
0.398367,0.464300,0.495931,	0.000738578,	0.393978
0.388817,0.475286,0.495373,	0.000469233,	0.106458
0.397312,0.468339,0.498365,	0.000473508,	0.103943
0.380238,0.462682,0.486470,	0.00182277,	5.93230
0.370208,0.468622,0.488092,	0.00153729,	3.55251
0.394832,0.455276,0.486671,	0.000554903,	0.166812
0.399003,0.452754,0.489684,	0.000779750,	0.463553
0.395875,0.456706,0.488464,	0.000791618,	0.484509
0.395554,0.459869,0.490077,	0.000641278,	0.259019
0.376150,0.472186,0.485795,	0.000571597,	0.182739
0.398261,0.455079,0.485926,	0.00103707,	1.08973
0.378767,0.464142,0.451559,	0.000834576,	0.568334
0.386748,0.455796,0.467297,	0.000349575,	0.0419125
0.385085,0.457149,0.482693,	0.000734443,	0.387272
0.368653,0.467305,0.449098,	0.000482434,	0.109811
0.364076,0.468469,0.449722,	0.000621597,	0.234710
0.362601,0.473822,0.465606,	0.000503524,	0.124899
0.375472,0.474533,0.445639,	0.000623155,	0.236387
0.382204,0.463365,0.452933,	0.000464307,	0.0980753
0.389948,0.455281,0.470888,	0.000508455,	0.128252
0.384918,0.464538,0.456033,	0.000439666,	0.0829868
0.385767,0.454153,0.466241,	0.000464334,	0.0980753
0.386356,0.449313,0.451486,	0.00105382,	1.14673
0.388534,0.446614,0.447601,	0.000810618,	0.519715
0.388230,0.448073,0.448742,	0.000389103,	0.0578393
0.394266,0.447513,0.466790,	0.000551217,	0.163459
0.389902,0.447208,0.450299,	0.000523070,	0.139988
0.395105,0.449246,0.460301,	0.000421219,	0.0729278
0.372051,0.441083,0.439599,	0.000846471,	0.591805
0.380732,0.447251,0.457182,	0.000910744,	0.741014
0.383644,0.456503,0.462889,	0.000552600,	0.165135
0.377005,0.443747,0.449252,	0.000608193,	0.220460
0.375212,0.443132,0.444767,	0.000665529,	0.288358
0.380809,0.449508,0.472442,	0.000468064,	0.100590
0.378777,0.439549,0.496566,	0.00103570,	1.08973
0.382714,0.450921,0.459987,	0.000516792,	0.169327
0.401436,0.451328,0.481073,	0.000301508,	0.0268240
0.394742,0.455294,0.483105,	0.000711179,	0.351227
0.396452,0.457252,0.482722,	0.000407740,	0.0662218
0.385092,0.437234,0.495146,	0.000807003,	0.515524
0.381919,0.428217,0.496314,	0.00245050,	14.3752
0.398734,0.419879,0.472511,	0.000423888,	0.0746043
0.400898,0.420602,0.470853,	0.000608887,	0.220460
0.397900,0.421744,0.474108,	0.000466052,	0.114002
0.393801,0.439302,0.479983,	0.000433418,	0.0796338
0.384534,0.429788,0.493586,	0.000728063,	0.377213
0.402605,0.422349,0.476652,	0.000644938,	0.262372
0.388206,0.442206,0.495105,	0.00149174,	3.23900
0.362687,0.410361,0.456366,	0.000935945,	0.802206
0.376992,0.438701,0.470556,	0.000369851,	0.0494568
0.375611,0.433481,0.494653,	0.000525204,	0.141664
0.388112,0.414484,0.489211,	0.000436419,	0.0905311
0.362454,0.408057,0.454888,	0.000938762,	0.808074
0.354360,0.413518,0.430691,	0.00112357,	1.38395
0.366025,0.409648,0.457163,	0.000887330,	0.684851
0.363851,0.409092,0.456376,	0.000443785,	0.0855016
0.360753,0.424691,0.459644,	0.000535161,	0.150047
0.347176,0.403891,0.445815,	0.000771397,	0.449302
0.381035,0.444913,0.463290,	0.000473757,	0.103943
0.365965,0.424615,0.434229,	0.000622042,	0.235548
0.369955,0.438733,0.435214,	0.000757980,	0.424993
0.396821,0.417281,0.448274,	0.000784786,	0.471935
0.393810,0.416537,0.455616,	0.000716353,	0.359610
0.392711,0.415533,0.451771,	0.000456500,	0.0930458
0.392769,0.440319,0.467761,	0.000517942,	0.135797
0.395505,0.439706,0.469351,	0.000542216,	0.155915
0.388976,0.426685,0.433728,	0.00115788,	1.51472
0.389621,0.424162,0.424502,	0.000814680,	0.530613
0.390980,0.428199,0.437561,	0.00103445,	1.08134
0.391325,0.420064,0.419551,	0.000412672,	0.0687366
0.368929,0.436264,0.427091,	0.000906976,	0.729278
0.385406,0.431414,0.426071,	0.000814262,	0.527260
0.374312,0.427340,0.425135,	0.000471080,	0.102267
0.372139,0.427965,0.425174,	0.000498262,	0.120708
0.392713,0.416967,0.417151,	0.000623925,	0.237225
0.390944,0.420292,0.416114,	0.000738650,	0.393978
0.386054,0.417187,0.397708,	0.000586221,	0.196989
0.372313,0.442548,0.414997,	0.000460489,	0.0955606
0.377784,0.438451,0.416459,	0.000954269,	0.849986
0.368399,0.438036,0.414359,	0.000471465,	0.102267
0.371416,0.442892,0.417114,	0.000516299,	0.134958
0.381371,0.431987,0.403717,	0.000594625,	0.206210
0.376045,0.443105,0.431672,	0.00112916,	1.40575
0.377499,0.437150,0.403844,	0.000622107,	0.235548
0.382595,0.440515,0.435835,	0.000561455,	0.172680
0.374631,0.441207,0.407788,	0.000415521,	0.0704131
0.384245,0.430241,0.403223,	0.000578295,	0.192798
0.376804,0.435936,0.410428,	0.000432167,	0.0787956
0.368594,0.447613,0.413403,	0.000514670,	0.133282
0.388621,0.438783,0.443003,	0.000475306,	0.104781
0.368297,0.448853,0.411616,	0.000480101,	0.108134
0.368224,0.439737,0.402862,	0.000695648,	0.329432
0.369064,0.434908,0.397844,	0.000458168,	0.0938841
0.372703,0.441136,0.402542,	0.000556257,	0.168488
0.369936,0.441508,0.428669,	0.00168699,	4.70845
0.373481,0.442740,0.427296,	0.000321135,	0.0326918
0.373202,0.443831,0.424324,	0.000459313,	0.0947223
0.373865,0.443233,0.425905,	0.000574575,	0.185253
0.370222,0.445170,0.432255,	0.000649865,	0.268240
0.388794,0.443385,0.445745,	0.000768351,	0.443435
0.388754,0.445008,0.446114,	0.000611985,	0.223813
0.386848,0.445864,0.448672,	0.000393514,	0.0595158
0.387538,0.439029,0.439037,	0.000451144,	0.0896928
0.375291,0.454067,0.441687,	0.000697938,	0.332785
0.370369,0.441448,0.433274,	0.000635034,	0.250637
0.364448,0.451418,0.427995,	0.000467450,	0.0997518
0.361917,0.441399,0.421616,	0.000476485,	0.106458
0.368733,0.439862,0.424927,	0.000593914,	0.204533
0.364295,0.442022,0.423238,	0.000518984,	0.136635
0.363327,0.446279,0.430081,	0.000266068,	0.0184415
0.367150,0.447027,0.405002,	0.000591451,	0.202018
0.356465,0.442304,0.425229,	0.000535331,	0.150047
0.365788,0.442159,0.424554,	0.000414434,	0.0695748
0.369921,0.442219,0.432147,	0.000569766,	0.181062
0.368275,0.440836,0.423784,	0.000692234,	0.324403
0.360328,0.427095,0.419746,	0.00135244,	2.42171
0.351780,0.434661,0.418131,	0.000459605,	0.0947223
0.355401,0.434030,0.400447,	0.000454838,	0.0930458
0.365027,0.440466,0.403932,	0.000480198,	0.108134
0.353025,0.419859,0.417383,	0.000709697,	0.349551
0.361121,0.424723,0.426515,	0.000460863,	0.0955606
0.359388,0.421065,0.427698,	0.00109299,	1.27498
0.362444,0.428319,0.421385,	0.000599371,	0.210401
0.351990,0.419168,0.416691,	0.000565667,	0.176871
0.357550,0.424060,0.419945,	0.000551275,	0.164297
0.368948,0.431663,0.428493,	0.000697687,	0.331947
0.366366,0.431047,0.424138,	0.000378177,	0.0528098
0.360416,0.420327,0.431617,	0.000437737,	0.0821486
0.359398,0.419132,0.430828,	0.000442318,	0.0846633
0.344196,0.415932,0.427552,	0.000482339,	0.109811
0.322419,0.441076,0.426007,	0.000487587,	0.113164
0.345425,0.435829,0.428895,	0.000464962,	0.0980753
0.348493,0.423711,0.459523,	0.000503930,	0.124899
0.331680,0.405115,0.457211,	0.000448290,	0.0880163
0.346839,0.423825,0.460049,	1.38073e-05,	0.000838251
0.330721,0.412445,0.464862,	0.000446970,	0.0871781
0.326106,0.432161,0.457947,	0.000565234,	0.176871
0.349168,0.422938,0.486218,	0.000427052,	0.0762808
0.314836,0.444616,0.463546,	0.000556522,	0.168488
0.324155,0.449162,0.466894,	0.000349619,	0.0419125
0.312594,0.439073,0.452053,	0.000421071,	0.0729278
0.321802,0.440471,0.452110,	0.000732581,	0.384757
0.314279,0.439487,0.452175,	0.000521145,	0.138311
0.327033,0.450860,0.469869,	0.000795979,	0.492891
0.318005,0.446855,0.461985,	0.000913647,	0.744367
0.339344,0.456107,0.481904,	0.000253216,	0.0159268
0.340427,0.460863,0.486993,	0.000291519,	0.0243093
0.332962,0.457189,0.486417,	0.000796068,	0.492891
0.332356,0.438235,0.454208,	0.000867556,	0.637909
0.327449,0.441721,0.452325,	0.000726755,	0.376375
0.333832,0.452615,0.473882,	0.000497091,	0.119870
0.340911,0.440875,0.448774,	0.000708385,	0.347036
0.344365,0.441981,0.450974,	0.000436590,	0.0813103
0.349149,0.457021,0.442509,	0.000446457,	0.111487
0.324426,0.435215,0.453521,	0.000436453,	0.0813103
0.317219,0.443252,0.448177,	0.00142233,	2.81233
0.320168,0.442276,0.449872,	0.000637625,	0.253152
0.335751,0.442275,0.444655,	0.000365671,	0.0477803
0.313833,0.442729,0.447261,	0.000492679,	0.117355
0.337472,0.436989,0.434933,	0.000489781,	0.114840
0.337321,0.447977,0.436305,	0.000643423,	0.260696
0.330430,0.444498,0.439024,	0.000479896,	0.108134
0.322011,0.443032,0.443197,	0.000652848,	0.272431
0.343170,0.431527,0.442039,	0.000371674,	0.0871781
0.315378,0.442684,0.449625,	0.000460605,	0.0955606
0.321951,0.464961,0.446833,	0.000295298,	0.0251475
0.343347,0.455402,0.433853,	0.000444064,	0.0855016
0.319934,0.449804,0.447117,	0.000869240,	0.642100
0.327806,0.471725,0.451247,	0.000442489,	0.0846633
0.354198,0.482370,0.437589,	0.000996125,	0.966503
0.319850,0.457754,0.442090,	0.000674376,	0.300094
0.350679,0.478236,0.445924,	0.000835725,	0.570849
0.350293,0.459473,0.444623,	0.000584367,	0.195312
0.364128,0.473878,0.471621,	0.000513752,	0.132444
0.343970,0.478984,0.453378,	0.000961465,	0.867589
0.350846,0.466565,0.469198,	0.000457846,	0.0938841
0.340814,0.477621,0.452872,	0.000367228,	0.0486185
0.342787,0.476202,0.467710,	0.000504599,	0.125738
0.360571,0.469841,0.488101,	0.00126326,	1.96737
0.354827,0.468525,0.485275,	0.000440659,	0.0838251
0.356210,0.468703,0.486677,	0.000661336,	0.282490
0.322517,0.461458,0.467516,	0.00118094,	1.61279
0.326730,0.460788,0.470427,	0.000551231,	0.163459
0.353557,0.467733,0.486535,	0.000661370,	0.283329
0.341672,0.462063,0.485551,	0.000494345,	0.118193
0.344677,0.463866,0.485639,	0.000757915,	0.426670
0.317334,0.448653,0.462446,	0.000521991,	0.139150
0.342143,0.474051,0.471240,	0.000459577,	0.0947223
0.348848,0.502087,0.483510,	0.000777884,	0.460200
0.352486,0.504388,0.490930,	0.000629585,	0.243931
0.337161,0.492387,0.439066,	0.00206351,	8.59123
0.351797,0.505339,0.461442,	0.00227496,	11.4882
0.345207,0.500311,0.451908,	0.00130906,	2.19789
0.347694,0.482699,0.467712,	0.000537490,	0.151723
0.344362,0.486682,0.473627,	0.000481246,	0.108973
0.356556,0.504943,0.494223,	0.000507111,	0.127414
0.338804,0.486501,0.432517,	0.000643797,	0.261534
0.338649,0.483157,0.429927,	0.000571078,	0.182739
0.351180,0.486144,0.442335,	0.000583542,	0.206210
0.345483,0.481770,0.447986,	0.000489898,	0.114840
0.350745,0.486470,0.443498,	0.000519106,	0.136635
0.331756,0.499291,0.453363,	0.000505880,	0.126576
0.362657,0.488164,0.457941,	0.000473464,	0.103943
0.332041,0.494892,0.452584,	0.000421129,	0.0729278
0.333264,0.501128,0.457114,	0.000503913,	0.124899
0.333984,0.481387,0.424668,	0.000573092,	0.184415
0.336682,0.483132,0.428191,	0.000256521,	0.0167650
0.326666,0.466737,0.412871,	0.000565525,	0.176871
0.349581,0.471694,0.414400,	0.000572700,	0.183577
0.352675,0.471436,0.420626,	0.000171667,	0.00502950
0.336066,0.464640,0.414025,	0.000463344,	0.0972371
0.350071,0.470535,0.418217,	0.000228113,	0.0117355
0.328346,0.467141,0.413394,	0.000468467,	0.100590
0.353539,0.478264,0.430832,	0.000516641,	0.134958
0.345173,0.480783,0.432640,	0.000647973,	0.266564
0.335689,0.483568,0.426080,	0.000383557,	0.0553245
0.339093,0.487429,0.438128,	0.000536663,	0.150885
0.345803,0.484519,0.421876,	0.000443473,	0.0855016
0.343896,0.485034,0.423435,	0.000769254,	0.445111
0.342785,0.466590,0.403695,	0.000924819,	0.773705
0.338020,0.464913,0.407485,	0.000494452,	0.118193
0.338219,0.466922,0.409349,	0.000313693,	0.0301770
0.365537,0.458146,0.394713,	0.000832883,	0.565819
0.360479,0.465065,0.394617,	0.000661483,	0.282490
0.364441,0.459622,0.396313,	0.000534143,	0.149209
0.363820,0.461133,0.398459,	0.000223514,	0.0108973
0.385977,0.430374,0.401810,	0.000419004,	0.0720896
0.376544,0.435470,0.399730,	0.000485966,	0.112326
0.367514,0.438376,0.400319,	0.000577093,	0.187768
0.379357,0.402169,0.419072,	0.000454072,	0.0913693
0.400844,0.405448,0.438952,	0.000448010,	0.0880163
0.373580,0.377836,0.468199,	0.000543182,	0.156753
0.371047,0.376339,0.471556,	0.00109129,	1.26827
0.379037,0.389397,0.458427,	0.000616973,	0.229681
0.382525,0.391143,0.460202,	0.000564826,	0.176033
0.387942,0.392787,0.465478,	0.000662096,	0.284167
0.390121,0.394450,0.466153,	0.000957146,	0.857530
0.372680,0.383605,0.454100,	0.000414636,	0.0695748
0.392223,0.395944,0.467497,	0.000681306,	0.309314
0.378576,0.384714,0.465864,	0.000631223,	0.245607
0.391846,0.409393,0.486090,	0.000483093,	0.110649
0.390194,0.394740,0.469099,	0.000485936,	0.112326
0.393863,0.395403,0.472918,	0.000506185,	0.126576
0.398720,0.406712,0.491103,	0.000430148,	0.0779573
0.391780,0.398039,0.471360,	0.000253136,	0.0159268
0.393360,0.391849,0.472603,	0.000628073,	0.242254
0.390674,0.409540,0.490608,	0.000792273,	0.485347
0.375831,0.381313,0.469796,	0.000424277,	0.0746043
0.390000,0.411836,0.490111,	0.000603049,	0.214592
0.370621,0.383877,0.489453,	0.000440942,	0.0838251
0.357021,0.404635,0.451194,	0.000496952,	0.119870
0.348983,0.384171,0.450537,	0.000452194,	0.0905311
0.341672,0.399490,0.438604,	0.000459161,	0.0947223
0.343337,0.400784,0.440889,	0.000433633,	0.0989136
0.460513,0.439164,0.549757,	0.000651861,	0.270755
0.462484,0.439920,0.551519,	0.000433765,	0.0796338
0.466597,0.450791,0.560477,	0.000391127,	0.0586775
0.461674,0.449507,0.549844,	0.000514495,	0.133282
0.462515,0.447793,0.570936,	0.000577338,	0.187768
0.459617,0.448098,0.570974,	0.000663806,	0.285843
0.470700,0.455509,0.550580,	0.000847820,	0.596834
0.472961,0.475694,0.556990,	0.000678908,	0.305961
0.468615,0.470465,0.563803,	0.000618190,	0.230519
0.450330,0.490572,0.566937,	0.000468870,	0.100590
0.449867,0.488114,0.561552,	0.000493256,	0.117355
0.437818,0.488733,0.545935,	0.000805659,	0.510495
0.456527,0.478882,0.564210,	0.000853551,	0.608570
0.469398,0.473491,0.555854,	0.000469631,	0.101428
0.435596,0.499605,0.552183,	0.000849402,	0.598511
0.454207,0.476979,0.561017,	0.000437770,	0.0821486
0.455929,0.477668,0.563253,	0.000385896,	0.0561628
0.451579,0.489072,0.565320,	0.000461053,	0.0972371
0.436043,0.500734,0.554431,	0.000538707,	0.152562
0.459544,0.455850,0.563060,	0.000843167,	0.585099
0.458331,0.454378,0.551398,	0.000617365,	0.229681
0.458138,0.461963,0.570092,	0.000527053,	0.143341
0.456157,0.472648,0.567866,	0.000506945,	0.127414
0.463151,0.452386,0.573567,	0.000428618,	0.0771191
0.456827,0.465738,0.574822,	0.000691333,	0.322726
0.465265,0.451288,0.559491,	0.000618425,	0.231357
0.462127,0.454827,0.573063,	0.000545196,	0.158429
0.468853,0.467568,0.561555,	0.000537450,	0.151723
0.423028,0.471266,0.595740,	0.00109100,	1.26995
0.444265,0.452828,0.543507,	0.000594948,	0.206210
0.444611,0.452529,0.545932,	0.000830929,	0.560790
0.430855,0.465067,0.549718,	0.000456729,	0.0930458
0.411264,0.470123,0.527987,	0.000244101,	0.0142503
0.420681,0.483887,0.542173,	0.000924792,	0.772029
0.429748,0.467004,0.554177,	0.000445409,	0.0863398
0.434865,0.491104,0.545610,	0.000446692,	0.0871781
0.416834,0.495230,0.544117,	0.000522819,	0.139988
0.427549,0.489665,0.544154,	0.000497838,	0.120708
0.417505,0.492079,0.543780,	0.000398674,	0.0620305
0.435956,0.487954,0.587315,	0.000651496,	0.270755
0.419916,0.509199,0.556759,	0.000526210,	0.142503
0.417560,0.503495,0.550465,	0.000672547,	0.297579
0.403553,0.491417,0.547639,	0.000771472,	0.448464
0.401123,0.484589,0.536234,	0.00187574,	6.44112
0.387200,0.487462,0.535785,	0.00291200,	24.1835
0.396223,0.495710,0.545262,	0.000864520,	0.631203
0.412835,0.497227,0.539357,	0.000655878,	0.275784
0.401316,0.486415,0.540225,	0.000780153,	0.463553
0.396787,0.497197,0.547271,	0.000433198,	0.0796338
0.410213,0.470742,0.525187,	0.000994848,	0.963988
0.402046,0.480931,0.532229,	0.00105942,	1.16852
0.411266,0.468662,0.530826,	0.000363501,	0.0469420
0.413960,0.466220,0.526988,	0.000859201,	0.621982
0.407000,0.465415,0.555848,	0.000964032,	0.876810
0.410326,0.463389,0.555055,	0.000740891,	0.397331
0.410580,0.464633,0.551412,	0.000558685,	0.170165
0.413843,0.459022,0.577337,	0.000731230,	0.383081
0.420783,0.451601,0.586682,	0.000454055,	0.0913693
0.415398,0.456243,0.581173,	0.000688412,	0.319373
0.412530,0.463181,0.565683,	0.000458135,	0.0938841
0.405287,0.464928,0.582692,	0.000847535,	0.594320
0.412167,0.461905,0.569422,	0.000653951,	0.274108
0.413390,0.462034,0.591147,	0.000466175,	0.0989136
0.412894,0.461677,0.571169,	0.000442232,	0.0846633
0.402988,0.466361,0.566745,	0.000487390,	0.113164
0.419473,0.450760,0.584743,	0.000464735,	0.0980753
0.409325,0.448297,0.585190,	0.000452462,	0.0905311
0.432728,0.453245,0.591504,	0.000544434,	0.157591
0.437261,0.452030,0.589457,	0.000737089,	0.391463
0.442350,0.447591,0.536223,	0.000557438,	0.169327
0.451253,0.449420,0.574266,	0.000478813,	0.107296
0.437581,0.448739,0.571633,	0.000685129,	0.314344
0.432513,0.454054,0.580427,	0.000716258,	0.358771
0.450791,0.449287,0.576520,	0.000802787,	0.506303
0.444031,0.421928,0.557513,	0.00122268,	1.78547
0.441604,0.428520,0.545769,	0.000427254,	0.0762808
0.421297,0.427453,0.572833,	0.000746413,	0.407390
0.446871,0.424908,0.554509,	0.000527076,	0.143341
0.420219,0.426788,0.571459,	0.000698839,	0.333624
0.418745,0.447270,0.571734,	0.000843095,	0.586775
0.414378,0.420356,0.566289,	0.000428644,	0.0771191
0.415587,0.423599,0.565729,	0.000584425,	0.195312
0.410343,0.443378,0.551853,	0.000379679,	0.0536480
0.410241,0.442414,0.555133,	0.000475883,	0.115679
0.413489,0.465282,0.513827,	0.000435224,	0.0804721
0.414701,0.457488,0.578214,	0.000381941,	0.0544863
0.414942,0.457116,0.579580,	0.000584288,	0.195312
0.418062,0.460851,0.513672,	0.000281542,	0.0217945
0.417771,0.420052,0.520474,	0.000829906,	0.559951
0.419529,0.424430,0.522522,	0.00108427,	1.24732
0.435850,0.439257,0.515618,	0.000833178,	0.564981
0.434197,0.439377,0.523949,	0.000487444,	0.113164
0.419052,0.424547,0.520004,	0.000678222,	0.305123
0.438151,0.439655,0.513582,	0.000391260,	0.0586775
0.421355,0.427901,0.520764,	0.000495453,	0.119032
0.417314,0.413299,0.523662,	0.000548288,	0.160944
0.416333,0.415791,0.520877,	0.000345471,	0.0402360
0.417682,0.414989,0.522974,	0.000417833,	0.0712513
0.445460,0.417999,0.526533,	0.000361259,	0.0461038
0.441906,0.422802,0.512133,	0.000941273,	0.813941
0.440646,0.440447,0.510725,	0.000808312,	0.515524
0.428016,0.456829,0.514265,	0.000204525,	0.00838251
0.441074,0.441910,0.509609,	0.000477706,	0.106458
0.446596,0.434195,0.510827,	0.000912112,	0.741014
0.447922,0.447902,0.516244,	0.000921242,	0.762808
0.446410,0.427406,0.517442,	0.000540288,	0.154238
0.444300,0.443196,0.536497,	0.000554459,	0.166812
0.448808,0.449454,0.534441,	0.000457851,	0.0938841
0.427672,0.457360,0.512574,	0.000631685,	0.246446
0.444420,0.417555,0.522200,	0.00112713,	1.40323
0.447408,0.416030,0.534580,	0.000495969,	0.119032
0.428712,0.452184,0.517962,	0.000534315,	0.149209
0.438742,0.444906,0.493808,	0.000391513,	0.0586775
0.437688,0.446615,0.494894,	0.000663362,	0.287520
0.435945,0.426247,0.497442,	0.000632426,	0.247284
0.438037,0.437520,0.495350,	0.000500511,	0.122385
0.440559,0.418875,0.512858,	0.000653323,	0.272431
0.433883,0.427996,0.488915,	0.000716426,	0.358771
0.412254,0.455662,0.491822,	0.000450833,	0.0896928
0.414166,0.447915,0.496108,	0.000424284,	0.0746043
0.410355,0.435102,0.507389,	0.000686482,	0.316020
0.403725,0.429497,0.493910,	0.000720058,	0.365477
0.419291,0.461522,0.506356,	0.000624758,	0.238063
0.423187,0.462170,0.503112,	0.000782469,	0.467744
0.425534,0.458250,0.503577,	0.000470559,	0.153400
0.418145,0.462181,0.508923,	0.000471320,	0.102267
0.408632,0.471800,0.519748,	0.000388527,	0.0578393
0.406160,0.475305,0.524872,	0.000395324,	0.0603540
0.408221,0.472773,0.522044,	0.000741847,	0.399007
0.406574,0.474475,0.512840,	0.000654713,	0.274946
0.410989,0.491567,0.527796,	0.000504985,	0.125738
0.411982,0.494534,0.531120,	0.000857297,	0.616114
0.404764,0.482902,0.514756,	0.00108516,	1.24816
0.396852,0.487621,0.536694,	0.00109847,	1.29594
0.406596,0.483052,0.522973,	0.000322332,	0.0326918
0.406743,0.483123,0.525125,	0.000591935,	0.202857
0.413296,0.496885,0.535399,	0.000228863,	0.0117355
0.404041,0.484051,0.509279,	0.000629980,	0.243931
0.400961,0.483054,0.506289,	0.000294510,	0.0251475
0.401808,0.480819,0.506679,	0.000517975,	0.135797
0.401981,0.481469,0.505152,	0.000613096,	0.225489
0.400154,0.490284,0.501573,	0.000405698,	0.0653835
0.408491,0.497362,0.501695,	0.000878567,	0.664733
0.410686,0.482647,0.517427,	0.000638305,	0.253990
0.406364,0.470017,0.512583,	0.000382079,	0.0544863
0.428008,0.484286,0.508411,	0.000483806,	0.110649
0.421361,0.488317,0.501824,	0.000559093,	0.171003
0.417470,0.488414,0.528489,	0.000404419,	0.0645453
0.409819,0.488690,0.524634,	0.000856736,	0.614438
0.417268,0.491680,0.521169,	0.000591406,	0.202018
0.434379,0.488954,0.534479,	0.000520586,	0.138311
0.430518,0.493824,0.542328,	0.000784811,	0.471935
0.416238,0.500446,0.533812,	0.000481298,	0.108973
0.410904,0.472620,0.515497,	0.000579829,	0.190283
0.418687,0.491527,0.538054,	0.000659912,	0.281652
0.414250,0.496316,0.530487,	0.000622897,	0.236387
0.413103,0.483031,0.521143,	0.000627926,	0.242254
0.423010,0.482662,0.540431,	0.000460800,	0.0955606
0.423650,0.482951,0.541332,	0.000444147,	0.0855016
0.432299,0.495229,0.544527,	0.000585298,	0.196151
0.427558,0.499709,0.545448,	0.000454058,	0.0913693
0.432092,0.462146,0.512690,	0.000462214,	0.0963988
0.410203,0.481861,0.519150,	0.000404050,	0.0645453
0.409944,0.468220,0.515037,	0.000439751,	0.0829868
0.419682,0.458043,0.503399,	0.000932614,	0.792985
0.418839,0.462598,0.528463,	0.000444534,	0.0888546
0.413347,0.462607,0.508234,	0.000730732,	0.381404
0.450217,0.453176,0.517114,	0.000672936,	0.298417
0.463330,0.453230,0.527348,	0.000288497,	0.0234710
0.452684,0.453658,0.517549,	0.000521170,	0.139150
0.469297,0.453727,0.534315,	0.00118589,	1.63291
0.471459,0.454833,0.542046,	0.00134265,	2.37141
0.472451,0.454988,0.544960,	0.000579128,	0.190283
0.471430,0.455980,0.548816,	0.000316092,	0.0310153
0.435887,0.487343,0.535050,	0.000526307,	0.142503
0.434795,0.493633,0.541260,	0.000666391,	0.290873
0.458867,0.468496,0.543489,	0.000563835,	0.175194
0.433138,0.488595,0.531064,	0.000468853,	0.100590
0.445289,0.494954,0.548828,	0.000465811,	0.0989136
0.436892,0.494633,0.544181,	0.000381686,	0.0544863
0.463024,0.458418,0.522271,	0.000462257,	0.0963988
0.442736,0.458159,0.510915,	0.000978384,	0.914531
0.423928,0.490398,0.502676,	0.000534774,	0.149209
0.445796,0.462718,0.512297,	0.000536462,	0.150885
0.431212,0.487943,0.519224,	0.000697607,	0.331947
0.439970,0.461060,0.511934,	0.000587317,	0.197827
0.446476,0.478018,0.512613,	0.000545503,	0.158429
0.443575,0.495268,0.507122,	0.000827682,	0.554922
0.439896,0.488331,0.508317,	0.000642384,	0.259019
0.458001,0.472279,0.518856,	0.000598269,	0.209563
0.460507,0.474093,0.520010,	0.000485069,	0.111487
0.480676,0.466118,0.510773,	0.000562843,	0.174356
0.474694,0.480600,0.521830,	0.000491095,	0.115679
0.471717,0.460646,0.523388,	0.000419183,	0.0720896
0.470692,0.477472,0.522006,	0.000472170,	0.103105
0.462344,0.459897,0.522588,	0.000492305,	0.116517
0.480216,0.487193,0.520083,	0.000492181,	0.116517
0.471570,0.465618,0.527102,	0.000459381,	0.0947223
0.487138,0.475038,0.550684,	0.000457853,	0.0938841
0.480056,0.459119,0.535803,	0.000469982,	0.101428
0.466025,0.452873,0.529914,	0.000857640,	0.619467
0.473690,0.455056,0.539343,	0.000425657,	0.0754426
0.476904,0.455002,0.541106,	0.000607619,	0.219622
0.471249,0.455934,0.546587,	0.000404295,	0.0645453
0.465427,0.455877,0.522169,	0.000756568,	0.423317
0.470242,0.454859,0.545942,	0.000638361,	0.253990
0.468837,0.449435,0.525456,	0.000616640,	0.228842
0.463459,0.449494,0.516352,	0.00102681,	1.05955
0.470071,0.436689,0.523020,	0.00102597,	1.05452
0.475236,0.458751,0.516086,	0.000951721,	0.842442
0.470045,0.437070,0.516468,	0.000737226,	0.391463
0.450653,0.441483,0.507890,	0.000390979,	0.0586775
0.462491,0.438327,0.514428,	0.000471142,	0.102267
0.454752,0.446127,0.523677,	0.000882350,	0.673953
0.476990,0.439510,0.535738,	0.000682493,	0.310153
0.467048,0.438392,0.534097,	0.000385461,	0.0561628
0.466184,0.444927,0.537117,	0.000588438,	0.199504
0.475507,0.437117,0.529934,	0.000433252,	0.0796338
0.467003,0.442541,0.537601,	0.000342660,	0.0393978
0.450574,0.449674,0.536265,	0.000486070,	0.112326
0.471979,0.436596,0.526451,	0.000349799,	0.0419125
0.459940,0.436348,0.527633,	0.000468485,	0.100590
0.457728,0.433580,0.530074,	0.000621708,	0.234710
0.452702,0.433415,0.525501,	0.000888068,	0.685689
0.452376,0.429653,0.543047,	0.000462127,	0.0963988
0.453327,0.442853,0.505659,	0.000261234,	0.0176033
0.453088,0.439506,0.513384,	0.000458573,	0.0947223
0.447984,0.444415,0.501682,	0.000319059,	0.0318535
0.450728,0.441671,0.511300,	0.000451171,	0.0896928
0.462651,0.437605,0.521650,	0.000845190,	0.590128
0.444902,0.436737,0.507131,	0.000706798,	0.344521
0.468844,0.438382,0.520216,	0.000439415,	0.0829868
0.465328,0.434976,0.510748,	0.000477574,	0.106458
0.449623,0.420645,0.509470,	0.000555310,	0.167650
0.441147,0.415032,0.511865,	0.000456391,	0.0930458
0.435895,0.403659,0.510253,	0.000398279,	0.0620305
0.435284,0.399704,0.510420,	0.000549267,	0.161782
0.446362,0.417015,0.529401,	0.000400612,	0.0628688
0.416171,0.409285,0.525156,	0.000607369,	0.218783
0.415300,0.410821,0.518338,	0.000600276,	0.211239
0.415813,0.410997,0.522698,	0.000816681,	0.531451
0.421071,0.388847,0.523636,	0.000483595,	0.110649
0.401461,0.408116,0.519481,	0.000471163,	0.102267
0.434171,0.394849,0.509753,	0.000916427,	0.754426
0.433817,0.411162,0.502955,	0.000513489,	0.132444
0.432910,0.409119,0.504868,	0.000495697,	0.119032
0.436549,0.406035,0.509601,	0.000565938,	0.177709
0.433319,0.405821,0.506293,	0.000370058,	0.0494568
0.433861,0.403560,0.506661,	0.000529723,	0.145017
0.438307,0.409695,0.509724,	0.000577985,	0.188606
0.432299,0.413246,0.493697,	0.000310220,	0.0293388
0.426739,0.404878,0.494482,	0.000499398,	0.121546
0.420377,0.375431,0.512363,	0.000375789,	0.0519715
0.419445,0.373343,0.512770,	0.000621846,	0.234710
0.398661,0.390708,0.493250,	0.000650950,	0.269917
0.379083,0.403537,0.503466,	0.000719098,	0.364639
0.394652,0.406451,0.491925,	0.000477764,	0.106458
0.396108,0.405835,0.491672,	0.000529211,	0.145017
0.413665,0.404856,0.505620,	0.000823470,	0.544863
0.380338,0.407762,0.502068,	0.00114412,	1.46359
0.384853,0.403685,0.510333,	0.00125620,	1.93720
0.414755,0.406552,0.508384,	0.000613575,	0.225489
0.380173,0.411653,0.501222,	0.000437415,	0.0821486
0.419289,0.411841,0.512389,	0.000600968,	0.212077
0.419908,0.391012,0.514277,	0.000450343,	0.0972371
0.380958,0.413100,0.499919,	0.000453893,	0.0913693
0.392906,0.388161,0.504334,	0.000876601,	0.657188
0.394691,0.398946,0.495075,	0.000514494,	0.133282
0.387530,0.388530,0.496366,	0.000507055,	0.127414
0.393628,0.392072,0.501333,	0.000719504,	0.363801
0.388289,0.402916,0.510114,	0.000243498,	0.0142503
0.392066,0.390032,0.504086,	0.000459337,	0.0947223
0.390106,0.382656,0.509085,	0.000483732,	0.110649
0.381686,0.410609,0.508935,	0.000889680,	0.689042
0.386804,0.380869,0.508174,	0.000454997,	0.0922076
0.396691,0.384631,0.503000,	0.000610393,	0.222136
0.385264,0.405737,0.503446,	0.000536558,	0.150885
0.379703,0.411640,0.503138,	0.00101246,	1.01261
0.366460,0.399538,0.509143,	0.000480010,	0.108134
0.368874,0.396267,0.508172,	0.000460564,	0.0955606
0.372712,0.409763,0.504074,	0.000679119,	0.308476
0.366395,0.394471,0.509979,	0.000650640,	0.269078
0.361572,0.392280,0.518275,	0.000704842,	0.343683
0.361331,0.394135,0.519707,	0.000583037,	0.193636
0.363819,0.396929,0.519210,	0.000363447,	0.0469420
0.370161,0.410769,0.535959,	0.00141061,	2.74695
0.375677,0.410051,0.523203,	0.00115981,	1.52981
0.369949,0.404042,0.519375,	0.000401577,	0.0938841
0.372910,0.410183,0.530585,	0.000771742,	0.451817
0.365930,0.415059,0.547294,	0.00171126,	4.90377
0.377751,0.409306,0.518017,	0.000431139,	0.0787956
0.392160,0.403533,0.511988,	0.000542638,	0.155915
0.384218,0.393403,0.533933,	0.000498997,	0.121546
0.394879,0.390751,0.524406,	0.000542631,	0.155915
0.355343,0.454821,0.511774,	0.000497522,	0.120708
0.345701,0.461760,0.491755,	0.000269135,	0.0192798
0.349928,0.463775,0.496210,	0.000874441,	0.655512
0.375891,0.455003,0.503043,	0.00218662,	10.2401
0.362294,0.461887,0.528831,	0.000945891,	0.825677
0.361974,0.452271,0.491010,	0.000575471,	0.186092
0.350058,0.429857,0.503611,	0.000464361,	0.0980753
0.362769,0.422114,0.509700,	0.000617518,	0.230519
0.373924,0.446215,0.494318,	0.000514366,	0.133282
0.382089,0.433024,0.493928,	0.000454613,	0.0922076
0.381240,0.415341,0.498770,	0.000389897,	0.0578393
0.373870,0.438871,0.498817,	0.000699679,	0.334462
0.364224,0.412894,0.518164,	0.000616644,	0.229681
0.366296,0.419567,0.513784,	0.000439577,	0.0829868
0.389771,0.444264,0.494117,	0.000443945,	0.0855016
0.386129,0.459772,0.485244,	0.000391564,	0.0586775
0.383140,0.457873,0.504559,	0.000863244,	0.627850
0.380436,0.458266,0.504823,	0.000469504,	0.102267
0.384389,0.454530,0.502408,	0.000968446,	0.888546
0.373421,0.446618,0.500887,	0.000571579,	0.182739
0.385222,0.458063,0.504604,	0.000790484,	0.484509
0.393553,0.449021,0.493364,	0.000446950,	0.0871781
0.375682,0.450961,0.501241,	0.000524205,	0.140826
0.375196,0.441142,0.498927,	0.000475310,	0.104781
0.400434,0.427130,0.491737,	0.000447033,	0.0871781
0.388109,0.447329,0.501258,	0.000956198,	0.854177
0.388575,0.451409,0.502140,	0.000613270,	0.225489
0.396646,0.461201,0.503425,	0.000464763,	0.0980753
0.399908,0.467186,0.506703,	0.000408983,	0.0670601
0.397413,0.464096,0.504588,	0.000440913,	0.0838251
0.398474,0.467583,0.511044,	0.00112041,	1.37557
0.402216,0.468450,0.507828,	0.000440755,	0.0838251
0.388681,0.459615,0.506288,	0.000316053,	0.0310153
0.401453,0.427838,0.492601,	0.000578121,	0.188606
0.389380,0.460935,0.507525,	0.000479602,	0.108134
0.385804,0.432510,0.497906,	0.000486071,	0.112326
0.392673,0.417405,0.500699,	0.000680440,	0.307638
0.386445,0.428174,0.501375,	0.000425781,	0.0754426
0.386272,0.429696,0.499928,	0.000450844,	0.0896928
0.387886,0.442529,0.504071,	0.000330370,	0.0352065
0.386085,0.437450,0.506169,	0.000501229,	0.123223
0.385661,0.435894,0.506747,	0.000428658,	0.0771191
0.390697,0.460508,0.521113,	0.000548053,	0.160944
0.393863,0.467144,0.518961,	0.000521019,	0.138311
0.400628,0.469299,0.509884,	0.000725311,	0.373022
0.397075,0.468387,0.513631,	0.000354377,	0.0435890
0.390766,0.464583,0.523321,	0.000565625,	0.176871
0.391445,0.462879,0.521109,	0.000880767,	0.668924
0.404436,0.469256,0.519130,	0.000534281,	0.149209
0.396403,0.468247,0.515384,	0.000787985,	0.478641
0.392667,0.464746,0.518901,	0.000429910,	0.0779573
0.389326,0.464713,0.525190,	0.000457866,	0.0938841
0.367544,0.417912,0.545508,	0.000610800,	0.222975
0.375907,0.461138,0.510172,	0.000453978,	0.0913693
0.368851,0.422296,0.538656,	0.000456761,	0.0930458
0.380683,0.463694,0.511519,	0.000671523,	0.295902
0.369006,0.417492,0.550516,	0.000557922,	0.170165
0.365627,0.416392,0.560267,	0.000668108,	0.291711
0.361419,0.404023,0.524048,	0.000439337,	0.0829868
0.359721,0.405527,0.533291,	0.000516043,	0.134120
0.363950,0.420298,0.553457,	0.000574101,	0.188606
0.362945,0.421707,0.555409,	0.000798451,	0.497083
0.365865,0.439565,0.566012,	0.000768291,	0.442596
0.367713,0.441845,0.565177,	0.000786175,	0.475288
0.371586,0.447478,0.558301,	0.000487334,	0.113164
0.367891,0.445585,0.566777,	0.000419386,	0.0720896
0.367695,0.420585,0.554132,	0.000458094,	0.0938841
0.369907,0.445545,0.563628,	0.000430702,	0.0779573
0.395098,0.467094,0.569554,	0.000477147,	0.106458
0.377865,0.435326,0.551191,	0.000633059,	0.248122
0.360393,0.469665,0.543076,	0.000640356,	0.256505
0.364219,0.473362,0.541777,	0.00122531,	1.79721
0.379025,0.492368,0.557525,	0.00148092,	3.19038
0.352607,0.482011,0.547285,	0.000421099,	0.0729278
0.354728,0.484639,0.541341,	0.00138367,	2.59439
0.369928,0.487240,0.543527,	0.000356415,	0.0444273
0.363536,0.490113,0.554919,	0.000534740,	0.149209
0.377116,0.472362,0.579265,	0.00123436,	1.84247
0.373670,0.477102,0.577738,	0.000606988,	0.218783
0.383281,0.471341,0.584265,	0.000581144,	0.191959
0.378500,0.472203,0.581804,	0.000516891,	0.134958
0.398940,0.466738,0.586252,	0.000601435,	0.212916
0.383711,0.496637,0.562962,	0.000884432,	0.676468
0.386809,0.502259,0.565749,	0.00103896,	1.09727
0.386095,0.484653,0.555765,	0.000564298,	0.176871
0.383864,0.481912,0.578803,	0.000552852,	0.165135
0.388725,0.487307,0.546399,	0.000588276,	0.198665
0.386443,0.490736,0.560274,	0.000528532,	0.144179
0.392758,0.500229,0.561227,	0.000479402,	0.108134
0.384844,0.491012,0.564481,	0.000564271,	0.176033
0.385514,0.499313,0.564649,	0.000495295,	0.119032
0.381504,0.492204,0.550451,	0.000420591,	0.0729278
0.380384,0.490441,0.551309,	0.000590782,	0.202018
0.385252,0.487725,0.539541,	0.000469146,	0.101428
0.383314,0.489692,0.544324,	0.000613105,	0.225489
0.388982,0.486358,0.544486,	0.000595337,	0.207048
0.384445,0.480418,0.539025,	0.000765806,	0.439243
0.388922,0.485268,0.546148,	0.000307255,	0.0285005
0.385056,0.481206,0.543826,	0.000457935,	0.0938841
0.384745,0.482631,0.561300,	0.000682256,	0.310153
0.385613,0.471698,0.578118,	0.000537109,	0.161782
0.390898,0.470117,0.576260,	0.000496705,	0.119870
0.389436,0.470272,0.577101,	0.000585613,	0.196151
0.382632,0.478425,0.539966,	0.000444170,	0.0855016
0.376788,0.470586,0.565875,	0.000741259,	0.399007
0.377374,0.477601,0.569683,	0.000850051,	0.599349
0.373298,0.468284,0.567422,	0.000363652,	0.0469420
0.383988,0.479422,0.542106,	0.000810583,	0.520554
0.379822,0.472575,0.553339,	0.000656797,	0.277461
0.370633,0.477318,0.579114,	0.000514978,	0.133282
0.373588,0.467172,0.577248,	0.000433293,	0.0796338
0.364980,0.470904,0.546614,	0.000435053,	0.0804721
0.385912,0.482881,0.545649,	0.000472752,	0.103105
0.379633,0.486224,0.530436,	0.00243969,	14.2578
0.381064,0.491761,0.552222,	0.000288299,	0.0234710
0.370560,0.491548,0.558623,	0.000586960,	0.197827
0.385953,0.487067,0.522229,	0.000649168,	0.268240
0.386596,0.486321,0.529312,	0.000580086,	0.191121
0.383411,0.485500,0.517958,	0.00188836,	6.59955
0.381572,0.485211,0.523571,	0.000707921,	0.347036
0.371165,0.490221,0.553217,	0.000466254,	0.0989136
0.369369,0.494822,0.534693,	0.000722491,	0.367992
0.374443,0.483809,0.534640,	0.000441168,	0.0838251
0.364792,0.470773,0.543373,	0.000455192,	0.0922076
0.370998,0.481839,0.532242,	0.000596350,	0.207048
0.369572,0.469658,0.521531,	0.000447745,	0.0880163
0.404586,0.469882,0.508730,	0.000594448,	0.205371
0.391304,0.482943,0.528728,	0.000631455,	0.246446
0.393699,0.478484,0.527592,	0.000696442,	0.330271
0.402548,0.475252,0.518818,	0.000646438,	0.264887
0.390257,0.480596,0.531829,	0.000456315,	0.0930458
0.399203,0.478373,0.528051,	9.35419e-05,	0.000838251
0.397454,0.479246,0.528638,	0.000233712,	0.0125738
0.388316,0.491007,0.514650,	0.00132302,	2.27166
0.394344,0.487412,0.533237,	0.000456834,	0.0930458
0.394967,0.490350,0.525769,	0.000417546,	0.0712513
0.396797,0.492215,0.515829,	0.000429100,	0.0771191
0.397616,0.493415,0.518813,	0.000347368,	0.0410743
0.391380,0.489654,0.513785,	0.000490715,	0.115679
0.395301,0.475943,0.505684,	0.000581746,	0.193636
0.392024,0.473604,0.499328,	0.000467157,	0.0997518
0.395881,0.473247,0.504357,	0.000601330,	0.212916
0.401923,0.464866,0.500674,	0.000449847,	0.0888546
0.396804,0.467838,0.504276,	0.000529213,	0.145017
0.376287,0.470443,0.496928,	0.000717799,	0.361286
0.391294,0.473367,0.510997,	0.000683204,	0.311829
0.375887,0.477291,0.505882,	0.00186383,	6.31957
0.381466,0.477806,0.509640,	0.000583807,	0.194474
0.377978,0.480315,0.511074,	0.000693796,	0.326079
0.380785,0.468034,0.496171,	0.000542291,	0.155915
0.367005,0.495910,0.496528,	0.000428324,	0.0771191
0.374067,0.497671,0.496533,	0.000459272,	0.0947223
0.371584,0.499474,0.498830,	0.00123895,	1.85840
0.380274,0.481953,0.513634,	0.000789474,	0.481156
0.362116,0.503497,0.502524,	0.00114247,	1.45772
0.361867,0.500603,0.498919,	0.000476345,	0.105620
0.365684,0.484257,0.500475,	0.00106828,	1.19032
0.376764,0.487747,0.520725,	0.000562756,	0.174356
0.356394,0.501746,0.500956,	0.000532373,	0.147532
0.357048,0.496002,0.498701,	0.000519018,	0.136635
0.371098,0.490962,0.534179,	0.000740532,	0.396493
0.353435,0.484991,0.538334,	0.000974882,	0.905311
0.361891,0.475592,0.526758,	0.000526493,	0.142503
0.375296,0.485713,0.531837,	0.000665388,	0.287520
0.364342,0.468409,0.503834,	0.000623213,	0.236387
0.368853,0.472905,0.500512,	0.000616283,	0.228842
0.368956,0.473161,0.498550,	0.000453821,	0.0913693
0.359316,0.476365,0.541648,	0.000373848,	0.0511333
0.354888,0.474171,0.524599,	0.000436604,	0.0813103
0.361490,0.473876,0.492596,	0.000615544,	0.228004
0.362239,0.477140,0.494955,	0.000482756,	0.109811
0.355526,0.465975,0.496486,	0.000534410,	0.149209
0.333206,0.463284,0.513448,	0.000441223,	0.0838251
0.350550,0.465889,0.508017,	0.000529526,	0.145017
0.352278,0.468451,0.514614,	0.000594880,	0.206210
0.336078,0.463740,0.514616,	0.000511619,	0.130767
0.339106,0.472667,0.523688,	0.000461832,	0.0963988
0.346422,0.507590,0.497663,	0.000581345,	0.191959
0.349213,0.507401,0.497820,	0.000589460,	0.200342
0.363600,0.528250,0.505936,	0.00107547,	1.21630
0.358742,0.525290,0.502988,	0.000530459,	0.145856
0.359077,0.525038,0.504455,	0.000499033,	0.121546
0.362630,0.527850,0.530502,	0.000989829,	0.948900
0.358627,0.510176,0.506823,	0.00116441,	1.54490
0.359677,0.511770,0.508794,	0.000631974,	0.246446
0.354247,0.513856,0.506751,	0.000954019,	0.849986
0.355725,0.510772,0.503549,	0.00133138,	2.31190
0.356913,0.507356,0.499939,	0.00104010,	1.10062
0.354936,0.516132,0.509017,	0.000568438,	0.179386
0.355654,0.509700,0.496097,	0.000846193,	0.591805
0.365636,0.500876,0.497408,	0.000482243,	0.109811
0.381071,0.502071,0.505653,	0.000671801,	0.295902
0.381650,0.505915,0.504561,	0.000327202,	0.0343683
0.381811,0.506682,0.501517,	0.000662505,	0.284167
0.363818,0.517089,0.511868,	0.000549855,	0.162621
0.386623,0.508354,0.510468,	0.000273445,	0.0201180
0.370496,0.509696,0.494247,	0.000682764,	0.310991
0.364921,0.507589,0.496181,	0.000412650,	0.0687366
0.379073,0.536231,0.518440,	0.00125624,	1.93468
0.379858,0.534597,0.510191,	0.000849042,	0.598511
0.382713,0.536629,0.504827,	0.000691494,	0.323565
0.382525,0.541189,0.507847,	0.000828185,	0.557437
0.382333,0.540072,0.495044,	0.000750027,	0.412419
0.375577,0.544526,0.515046,	0.000446726,	0.0871781
0.382776,0.540940,0.505850,	0.000448473,	0.0880163
0.382461,0.536989,0.506901,	0.00107121,	1.20037
0.403427,0.538639,0.508704,	0.00117008,	1.56585
0.397885,0.532303,0.506573,	0.000711714,	0.352065
0.397647,0.548839,0.488964,	0.00318955,	31.6901
0.388409,0.547722,0.483924,	0.000957879,	0.860045
0.394355,0.530407,0.505648,	0.000471502,	0.102267
0.387436,0.531335,0.503503,	0.000518593,	0.137473
0.401028,0.545935,0.505781,	0.000681810,	0.310991
0.405486,0.543198,0.490433,	0.00275902,	20.6780
0.388649,0.537778,0.497637,	0.000715102,	0.357095
0.392565,0.549744,0.488867,	0.000977185,	0.912855
0.391338,0.533215,0.498776,	0.000500181,	0.122385
0.383717,0.534361,0.510763,	0.000327191,	0.0343683
0.400797,0.546198,0.507343,	0.000324955,	0.0335300
0.388427,0.534374,0.512663,	0.000812340,	0.524745
0.389475,0.530185,0.503312,	0.000416063,	0.0704131
0.402050,0.545824,0.511851,	0.000534473,	0.149209
0.402894,0.545112,0.515977,	0.00184887,	6.18880
0.383679,0.532909,0.518475,	0.000450900,	0.0896928
0.385457,0.536526,0.501670,	0.000623882,	0.237225
0.380710,0.534883,0.508805,	0.000469611,	0.101428
0.386834,0.534029,0.514053,	0.000589101,	0.199504
0.384383,0.534392,0.515389,	0.000720820,	0.366316
0.383120,0.533595,0.516654,	0.000674460,	0.300094
0.382087,0.536828,0.502715,	0.000576021,	0.186930
0.379122,0.532193,0.517348,	0.000457966,	0.0938841
0.404174,0.527521,0.503183,	0.00341390,	38.9510
0.405672,0.517586,0.498791,	0.000400059,	0.0628688
0.394977,0.525371,0.498242,	0.000649048,	0.267402
0.395320,0.519556,0.497742,	0.000598551,	0.209563
0.402457,0.507509,0.500746,	0.00167988,	4.63217
0.403029,0.499808,0.501238,	0.000845409,	0.591805
0.402817,0.512687,0.500613,	0.000430109,	0.0779573
0.401954,0.512146,0.505520,	0.000864764,	0.633717
0.409870,0.531658,0.504586,	0.000385952,	0.0561628
0.404165,0.537428,0.509839,	0.000456798,	0.0930458
0.408941,0.533345,0.510447,	0.000625810,	0.239740
0.394053,0.501416,0.507268,	0.000586112,	0.196989
0.398721,0.498976,0.513215,	0.000529503,	0.145017
0.386819,0.504092,0.497615,	0.000580854,	0.191959
0.389566,0.500459,0.508034,	0.000747996,	0.409905
0.389172,0.504848,0.499343,	0.000452685,	0.0905311
0.398252,0.497849,0.513897,	0.000734900,	0.388110
0.397087,0.492278,0.524351,	0.000804068,	0.507980
0.394754,0.491333,0.527548,	0.000414614,	0.0695748
0.403210,0.518978,0.505930,	0.000222761,	0.0108973
0.402761,0.516386,0.505437,	0.000450768,	0.0896928
0.401833,0.496437,0.506288,	0.000611347,	0.222975
0.400846,0.507120,0.506507,	0.000562255,	0.173518
0.401812,0.498280,0.508930,	0.000560330,	0.172680
0.401901,0.521270,0.505120,	0.000298637,	0.0259858
0.407725,0.534247,0.521661,	0.000842959,	0.585937
0.402159,0.526891,0.507607,	0.000459407,	0.0947223
0.382855,0.526269,0.541042,	0.000528188,	0.144179
0.382781,0.531208,0.517385,	0.000979448,	0.917046
0.396022,0.503483,0.542447,	0.000457549,	0.0938841
0.409516,0.543570,0.536085,	0.000334753,	0.0368830
0.404641,0.538321,0.531912,	0.000471259,	0.102267
0.404130,0.536145,0.516207,	0.00302330,	26.9598
0.403613,0.538026,0.532925,	0.000417810,	0.0712513
0.386285,0.530312,0.528140,	0.000609035,	0.220460
0.384984,0.532211,0.532819,	0.000647707,	0.265725
0.384138,0.536140,0.531746,	0.000426969,	0.0762808
0.384596,0.541628,0.515161,	0.000439682,	0.0829868
0.383505,0.538236,0.522216,	0.000618639,	0.231357
0.383631,0.515071,0.530754,	0.000419102,	0.0720896
0.371538,0.521837,0.532629,	0.000622938,	0.236387
0.382254,0.509319,0.537457,	0.000428742,	0.0771191
0.382805,0.527544,0.539617,	0.000449813,	0.0905311
0.379403,0.523010,0.545160,	0.000614247,	0.226328
0.365955,0.515546,0.520313,	0.000534129,	0.149209
0.384853,0.493581,0.516851,	0.000533494,	0.148370
0.369005,0.515390,0.525275,	0.000419600,	0.0720896
0.374788,0.497378,0.522542,	0.000569251,	0.180224
0.369045,0.504166,0.559378,	0.000477297,	0.106458
0.379944,0.496510,0.522198,	0.000542494,	0.155915
0.383773,0.504072,0.549233,	0.000738249,	0.393978
0.377346,0.508204,0.559950,	0.000511289,	0.130767
0.362581,0.512909,0.513492,	0.000497860,	0.120708
0.386830,0.528391,0.542120,	0.000518003,	0.135797
0.407281,0.542221,0.550339,	0.000521234,	0.138311
0.396553,0.502747,0.543788,	0.000587313,	0.197827
0.400878,0.519015,0.569855,	0.000465053,	0.0989136
0.391562,0.510008,0.562178,	0.000543453,	0.156753
0.381788,0.507960,0.558286,	0.000509346,	0.129091
0.395876,0.508100,0.564169,	0.000764647,	0.436729
0.388146,0.504119,0.564606,	0.000528515,	0.145017
0.459623,0.512030,0.531616,	0.000777687,	0.459361
0.457868,0.515346,0.522917,	0.000717509,	0.361286
0.459103,0.502474,0.523032,	0.000445203,	0.0863398
0.486613,0.498602,0.495249,	0.000604279,	0.215430
0.456349,0.503620,0.512889,	0.000584872,	0.196151
0.452451,0.501338,0.510999,	0.00102449,	1.05200
0.458123,0.512730,0.520256,	0.000667281,	0.290873
0.426693,0.506589,0.512995,	0.000446879,	0.0871781
0.455483,0.516746,0.494009,	0.000488490,	0.114002
0.428873,0.504950,0.512482,	0.000618678,	0.231357
0.445041,0.499073,0.508100,	0.000530279,	0.145856
0.456516,0.510979,0.518954,	0.000571783,	0.182739
0.445790,0.496502,0.508494,	0.000579443,	0.190283
0.430147,0.508811,0.529477,	0.00101239,	1.01345
0.429796,0.511175,0.523157,	0.000462085,	0.0963988
0.454738,0.513468,0.521904,	0.000722840,	0.368830
0.431043,0.517749,0.519826,	0.000937506,	0.807235
0.422693,0.503459,0.509848,	0.000501007,	0.123223
0.431080,0.512670,0.550680,	0.000438106,	0.0821486
0.427059,0.514583,0.550102,	0.000773731,	0.453494
0.446203,0.495408,0.549627,	0.000546815,	0.160106
0.433409,0.505075,0.547909,	0.000469315,	0.101428
0.431594,0.506825,0.546295,	0.000559430,	0.171003
0.433817,0.511957,0.552477,	0.000506828,	0.127414
0.460685,0.505790,0.542903,	0.000518038,	0.135797
0.401535,0.533457,0.506167,	0.000448281,	0.0880163
0.400282,0.530322,0.507058,	0.000285085,	0.0226328
0.413949,0.534341,0.513313,	0.000436742,	0.0813103
0.402819,0.528250,0.508247,	0.000407912,	0.0662218
0.403402,0.537959,0.504912,	0.000726916,	0.376375
0.403027,0.535092,0.510056,	0.000432055,	0.0787956
0.406541,0.540670,0.520759,	0.000538433,	0.152562
0.408466,0.538446,0.536054,	0.00137541,	2.53906
0.411127,0.533703,0.538247,	0.000534685,	0.149209
0.413776,0.537212,0.540408,	0.000772232,	0.450141
0.419622,0.510212,0.538268,	0.000615742,	0.228842
0.417065,0.505267,0.534990,	0.00109903,	1.29510
0.422744,0.504310,0.528589,	0.000884111,	0.676468
0.416874,0.505601,0.509198,	0.000611987,	0.223813
0.423513,0.509706,0.540594,	0.000580398,	0.191121
0.422046,0.512876,0.544509,	0.000888489,	0.687366
0.409936,0.509356,0.506393,	0.000870728,	0.647968
0.414649,0.507124,0.508514,	0.000307340,	0.0285005
0.421212,0.511225,0.540588,	0.000905362,	0.725087
0.413234,0.509499,0.530835,	0.000600711,	0.212077
0.419106,0.501182,0.506237,	0.000414390,	0.0695748
0.422875,0.516267,0.547387,	0.000800751,	0.503789
0.414368,0.526789,0.539746,	0.000439758,	0.0829868
0.416545,0.496719,0.503826,	0.000512310,	0.131605
0.413163,0.497004,0.502772,	0.000540383,	0.154238
0.407482,0.506133,0.503246,	0.000409486,	0.0670601
0.401848,0.501652,0.506096,	0.000462290,	0.0963988
0.403503,0.511857,0.504003,	0.000502564,	0.124061
0.403170,0.520903,0.500029,	0.00117510,	1.58346
0.407957,0.506640,0.525546,	0.000656193,	0.276623
0.404475,0.500818,0.499349,	0.000409447,	0.0670601
0.406259,0.509274,0.524344,	0.000424051,	0.0746043
0.402153,0.494535,0.519046,	0.000724151,	0.370507
0.406456,0.509580,0.525674,	0.000559738,	0.171841
0.411622,0.523862,0.534681,	0.000439505,	0.0829868
0.411693,0.507877,0.532070,	0.000566570,	0.177709
0.407606,0.537760,0.523557,	0.000332928,	0.0360448
0.405406,0.540762,0.529894,	0.000462894,	0.0972371
0.405743,0.540304,0.531451,	0.000705585,	0.343683
0.408251,0.542760,0.531662,	0.000402318,	0.0637070
0.406632,0.541336,0.528134,	0.000738641,	0.394816
0.406731,0.534329,0.496791,	0.000711899,	0.353742
0.401238,0.546413,0.493175,	0.000356325,	0.0444273
0.396973,0.547833,0.501231,	0.000596318,	0.207048
0.404477,0.539943,0.501655,	0.000429994,	0.0779573
0.399085,0.543606,0.506652,	0.000437925,	0.0821486
0.399714,0.546049,0.495356,	0.000714363,	0.356257
0.404893,0.544692,0.495452,	0.000519105,	0.136635
0.410105,0.537933,0.547151,	0.000827075,	0.552407
0.408398,0.535073,0.554797,	0.000469475,	0.101428
0.410872,0.535922,0.553893,	0.000438217,	0.0888546
0.404070,0.517547,0.569109,	0.000643377,	0.260696
0.421988,0.513119,0.567178,	0.000598425,	0.209563
0.421755,0.512031,0.561703,	0.00119928,	1.68488
0.405361,0.511291,0.563534,	0.000405537,	0.0653835
0.421720,0.515397,0.573646,	0.000542192,	0.155915
0.400165,0.508239,0.572097,	0.000592699,	0.203695
0.422573,0.511937,0.548190,	0.000669742,	0.293388
0.420532,0.508209,0.548466,	0.000424397,	0.0746043
0.432090,0.516424,0.569144,	0.000562726,	0.174356
0.429318,0.514286,0.570035,	0.000896823,	0.706645
0.421733,0.512305,0.564976,	0.000474045,	0.103943
0.423696,0.513823,0.550416,	0.000462082,	0.0963988
0.420023,0.507342,0.548931,	0.000466983,	0.110649
0.421203,0.511555,0.552564,	0.000442490,	0.0846633
0.425058,0.513655,0.569901,	0.000589499,	0.200342
0.427066,0.511044,0.551420,	0.000432085,	0.0787956
0.422153,0.512191,0.551411,	0.000592740,	0.203695
0.424176,0.518409,0.550590,	0.000442247,	0.0846633
0.423322,0.513185,0.555211,	0.000434807,	0.0804721
0.427571,0.513545,0.574829,	0.000493041,	0.117355
0.422178,0.511549,0.558738,	0.00102666,	1.06206
0.420803,0.509127,0.552689,	0.000524049,	0.140826
0.426808,0.513749,0.573286,	0.000319011,	0.0318535
0.426430,0.514010,0.562702,	0.000552746,	0.165135
0.425656,0.521225,0.556265,	0.000612358,	0.224651
0.430160,0.517034,0.564392,	0.000548904,	0.161782
0.437288,0.503889,0.553322,	0.000565371,	0.176871
0.446587,0.507822,0.566458,	0.000550111,	0.162621
0.361386,0.493476,0.405541,	0.000612321,	0.224651
0.373269,0.525739,0.412376,	0.000647566,	0.265725
0.364312,0.494851,0.409840,	0.000648862,	0.266564
0.365906,0.498092,0.409645,	0.000417572,	0.0712513
0.369518,0.516715,0.412182,	0.000713723,	0.355418
0.363678,0.485174,0.417459,	0.000466178,	0.0989136
0.369385,0.503773,0.411935,	0.000365158,	0.0477803
0.371413,0.491715,0.415911,	0.000468843,	0.100590
0.365600,0.492845,0.406922,	0.000578583,	0.189445
0.372998,0.496875,0.416827,	0.000617142,	0.229681
0.373494,0.522463,0.413051,	0.000646322,	0.264049
0.371667,0.519800,0.412333,	0.000685105,	0.314344
0.373574,0.489826,0.420111,	0.000442405,	0.0846633
0.372460,0.492475,0.416975,	0.000714087,	0.355418
0.378523,0.522636,0.415507,	0.000439516,	0.0829868
0.373565,0.522207,0.411297,	0.000663825,	0.286682
0.378880,0.501189,0.420546,	0.000606276,	0.217945
0.385881,0.513540,0.421407,	0.000953868,	0.851663
0.383080,0.509678,0.421814,	0.000829937,	0.559951
0.381539,0.518400,0.423940,	0.000524421,	0.140826
0.382707,0.510937,0.428257,	0.000484511,	0.111487
0.384134,0.516217,0.430181,	0.000412812,	0.0687366
0.377915,0.504784,0.453296,	0.000508438,	0.128252
0.383058,0.506992,0.421857,	0.000924691,	0.774544
0.380795,0.517706,0.444427,	0.000396513,	0.0611923
0.373355,0.498229,0.456375,	0.000696533,	0.330271
0.376631,0.501834,0.454194,	0.000559394,	0.171003
0.377172,0.491807,0.446179,	0.000507937,	0.128252
0.375235,0.539847,0.444101,	0.000459045,	0.0947223
0.377680,0.542217,0.446895,	0.000845181,	0.589290
0.376171,0.554224,0.455586,	0.000804331,	0.507980
0.375628,0.546750,0.437035,	0.000779477,	0.463553
0.374377,0.548580,0.435336,	0.000546528,	0.159268
0.376722,0.545933,0.439692,	0.000474872,	0.104781
0.376148,0.551425,0.462385,	0.000497721,	0.120708
0.374306,0.546800,0.441821,	0.000461924,	0.0963988
0.378346,0.536402,0.443557,	0.000449817,	0.0888546
0.381427,0.512346,0.454741,	0.000431775,	0.0787956
0.394759,0.524612,0.451356,	0.00138939,	2.62456
0.372101,0.542488,0.445630,	0.000420859,	0.0729278
0.366632,0.542273,0.446539,	0.000623186,	0.237225
0.366534,0.542504,0.454915,	0.000479710,	0.108134
0.367627,0.545179,0.453476,	0.000642973,	0.259858
0.365576,0.542305,0.443053,	0.000445590,	0.0863398
0.370441,0.548172,0.454998,	0.000515787,	0.134120
0.367664,0.546560,0.455305,	0.000425297,	0.0754426
0.365665,0.497863,0.453876,	0.000729262,	0.378889
0.360501,0.486883,0.435832,	0.000513619,	0.132444
0.371811,0.495652,0.456787,	0.000552695,	0.165135
0.367667,0.493688,0.451681,	0.000581580,	0.191959
0.370440,0.509315,0.461397,	0.000808981,	0.517201
0.371301,0.502797,0.458850,	0.000516678,	0.134958
0.358031,0.529189,0.455112,	0.000494707,	0.118193
0.372118,0.527955,0.470345,	0.000778045,	0.461038
0.357739,0.511828,0.460440,	0.000409597,	0.0670601
0.371145,0.520926,0.470187,	0.000433517,	0.0796338
0.367178,0.553187,0.458011,	0.000489744,	0.114840
0.355641,0.512404,0.462248,	0.000590510,	0.201180
0.359012,0.522521,0.464685,	0.000524129,	0.140826
0.383737,0.515224,0.456683,	0.000422626,	0.0737661
0.379260,0.495276,0.456542,	0.000520014,	0.137473
0.377015,0.496384,0.455650,	0.000566599,	0.177709
0.386542,0.525307,0.465119,	0.000482798,	0.109811
0.389713,0.522039,0.471367,	0.000504530,	0.125738
0.389813,0.529598,0.479032,	0.000678302,	0.305123
0.385863,0.536891,0.477039,	0.000519132,	0.136635
0.398128,0.522562,0.494228,	0.000624120,	0.238063
0.400016,0.526831,0.493299,	0.000467501,	0.0997518
0.391820,0.527403,0.482344,	0.000670649,	0.295902
0.395717,0.500290,0.493950,	0.000453479,	0.0913693
0.396002,0.532323,0.488355,	0.00109129,	1.27246
0.401036,0.523029,0.493967,	0.000611305,	0.223813
0.400645,0.508046,0.497513,	0.000392423,	0.0595158
0.395026,0.533442,0.485170,	0.000532643,	0.147532
0.398855,0.530007,0.488765,	0.000488666,	0.114002
0.380674,0.500249,0.484140,	0.000438030,	0.0821486
0.402134,0.521315,0.495233,	0.000746344,	0.405713
0.393523,0.548719,0.486328,	0.000859054,	0.620305
0.402435,0.518992,0.496235,	0.000466099,	0.0989136
0.391946,0.548166,0.484806,	0.000419576,	0.0720896
0.366069,0.511390,0.473318,	0.000808170,	0.516362
0.372929,0.503092,0.473241,	0.000576017,	0.186930
0.369776,0.500898,0.477039,	0.000811981,	0.523068
0.373056,0.545346,0.467135,	0.000461905,	0.0963988
0.370304,0.512022,0.476902,	0.000547324,	0.160106
0.378034,0.501401,0.487897,	0.000547448,	0.160106
0.370142,0.536672,0.471122,	0.000651056,	0.269917
0.376288,0.501725,0.487993,	0.000583021,	0.232195
0.355747,0.511786,0.486134,	0.000926886,	0.777058
0.379058,0.501370,0.489919,	0.000482186,	0.109811
0.364185,0.502359,0.492109,	0.000688674,	0.320212
0.363945,0.502544,0.493450,	0.000502325,	0.124061
0.357662,0.508770,0.493749,	0.000407709,	0.0662218
0.368882,0.507641,0.493975,	0.000766416,	0.439243
0.353761,0.513772,0.477877,	0.000365147,	0.0477803
0.344870,0.519705,0.464370,	0.00154467,	3.60029
0.354907,0.512513,0.474553,	0.000550096,	0.162621
0.356685,0.510341,0.489668,	0.000450907,	0.0896928
0.337189,0.495825,0.444078,	0.000795679,	0.492891
0.341414,0.499004,0.451898,	0.000204566,	0.00838251
0.343450,0.499845,0.450141,	0.000518727,	0.136635
0.335745,0.506412,0.447563,	0.000437774,	0.0821486
0.339504,0.505729,0.449756,	0.000590520,	0.201180
0.363069,0.552589,0.456863,	0.000543572,	0.156753
0.369696,0.546007,0.464564,	0.000537248,	0.151723
0.354843,0.521107,0.474918,	0.000500090,	0.122385
0.421142,0.549603,0.476727,	0.00174226,	5.18374
0.407830,0.550915,0.489320,	0.000429898,	0.0779573
0.383351,0.558242,0.471309,	0.000445230,	0.0863398
0.402653,0.548705,0.488256,	0.000503578,	0.124899
0.429250,0.549293,0.477014,	0.000916023,	0.751911
0.455018,0.541187,0.476781,	0.000478597,	0.107296
0.422212,0.531039,0.482844,	0.000484370,	0.111487
0.434838,0.548320,0.477307,	0.000476433,	0.105620
0.418394,0.532019,0.484498,	0.000637984,	0.254828
0.475161,0.524144,0.477964,	0.000635649,	0.251475
0.468030,0.532913,0.483888,	0.000623819,	0.238063
0.454184,0.526849,0.486613,	0.000759749,	0.429184
0.451023,0.543408,0.477531,	0.000576292,	0.186930
0.462663,0.534065,0.485978,	0.000758170,	0.425831
0.456018,0.539966,0.475604,	0.000493328,	0.117355
0.449993,0.537218,0.474181,	0.000480242,	0.108134
0.433638,0.526787,0.467307,	0.00101709,	1.02853
0.436302,0.522695,0.463754,	0.000694521,	0.327756
0.431492,0.540557,0.466536,	0.000582120,	0.192798
0.431658,0.537183,0.467585,	0.000310969,	0.0293388
0.437544,0.522658,0.467293,	0.000457894,	0.0938841
0.465729,0.520363,0.472527,	0.000428382,	0.0771191
0.466655,0.515730,0.460932,	0.000468167,	0.100590
0.465439,0.514350,0.458994,	0.000607665,	0.219622
0.431483,0.512161,0.468942,	0.000552920,	0.165135
0.474110,0.521969,0.476752,	0.000536190,	0.150885
0.475671,0.511524,0.480532,	0.000483989,	0.110649
0.474328,0.515862,0.478029,	0.000629070,	0.243093
0.463927,0.512718,0.481627,	0.000534121,	0.149209
0.476558,0.511633,0.477408,	0.000611377,	0.222975
0.468302,0.523228,0.480470,	0.000440659,	0.0838251
0.474304,0.515998,0.485565,	0.000438292,	0.0821486
0.434336,0.509629,0.488757,	0.000452223,	0.0905311
0.426010,0.501682,0.492629,	0.000517070,	0.134958
0.408314,0.506863,0.497277,	0.000451296,	0.0896928
0.429994,0.518413,0.484199,	0.000478376,	0.107296
0.424083,0.494470,0.497929,	0.000319331,	0.0318535
0.400291,0.500337,0.502684,	0.000720156,	0.365477
0.466331,0.521634,0.479427,	0.000562913,	0.174356
0.414681,0.532240,0.485219,	0.000484787,	0.111487
0.415342,0.530778,0.484604,	0.000678566,	0.305123
0.413064,0.500328,0.495587,	0.000637198,	0.253152
0.418634,0.527943,0.485482,	0.000503499,	0.124899
0.424104,0.504902,0.491798,	0.000545253,	0.158429
0.416491,0.545865,0.477929,	0.000912583,	0.742690
0.402749,0.532363,0.495059,	0.000435193,	0.0804721
0.397974,0.530998,0.489972,	0.000676825,	0.302608
0.405935,0.521937,0.501453,	0.000526430,	0.142503
0.401973,0.548241,0.490870,	0.000530643,	0.145856
0.401102,0.510838,0.483332,	0.000618489,	0.231357
0.400987,0.509290,0.481652,	0.000658348,	0.279137
0.393037,0.513851,0.456541,	0.000892330,	0.696586
0.399594,0.531830,0.462392,	0.000517827,	0.135797
0.392208,0.505384,0.460229,	0.000509366,	0.129091
0.403335,0.525392,0.479509,	0.000590331,	0.201180
0.402461,0.526444,0.465195,	0.000574294,	0.185253
0.401625,0.529903,0.481957,	0.000409444,	0.0670601
0.399066,0.517590,0.468542,	0.000526665,	0.152562
0.407896,0.542816,0.485708,	0.000570714,	0.181900
0.409231,0.544147,0.482770,	0.000482531,	0.109811
0.417597,0.539741,0.467021,	0.000466758,	0.0997518
0.413055,0.541897,0.466151,	0.000599286,	0.210401
0.411620,0.540234,0.468535,	0.000483664,	0.110649
0.405067,0.532516,0.470091,	0.000704882,	0.342845
0.413175,0.541450,0.470612,	0.000504844,	0.125738
0.410353,0.539546,0.480419,	0.000556473,	0.168488
0.410425,0.537375,0.483710,	0.000661247,	0.282490
0.414469,0.543391,0.472628,	0.000794040,	0.488700
0.410408,0.539202,0.477608,	0.000760439,	0.430023
0.413713,0.533275,0.485860,	0.000595865,	0.207048
0.410876,0.517505,0.458665,	0.000959036,	0.863398
0.409158,0.527995,0.462050,	0.000518727,	0.136635
0.417265,0.545868,0.471301,	0.000730713,	0.382242
0.425067,0.543752,0.469806,	0.000734254,	0.387272
0.419626,0.549173,0.471707,	0.000837962,	0.575878
0.423820,0.523055,0.475003,	0.000698466,	0.332785
0.409255,0.520322,0.486295,	0.000620451,	0.233034
0.421586,0.517793,0.472447,	0.000510670,	0.129929
0.423563,0.516186,0.471877,	0.000698292,	0.333624
0.417221,0.546594,0.473667,	0.000393560,	0.0595158
0.407801,0.501983,0.449325,	0.000821534,	0.543186
0.429984,0.512684,0.469337,	0.000734216,	0.387272
0.413894,0.505506,0.454817,	0.000564941,	0.176033
0.408933,0.510152,0.455476,	0.000460890,	0.0955606
0.408296,0.508844,0.454579,	0.000721764,	0.367154
0.427052,0.514288,0.470543,	0.000551628,	0.164297
0.429915,0.502119,0.443248,	0.000636416,	0.252313
0.411373,0.511449,0.436312,	0.000435268,	0.0804721
0.409366,0.518123,0.437067,	0.000850255,	0.600187
0.425052,0.534914,0.439351,	0.000436387,	0.0813103
0.408991,0.519860,0.456876,	0.00101307,	1.01680
0.436416,0.515573,0.454504,	0.000491269,	0.115679
0.434743,0.519618,0.457213,	0.000765811,	0.439243
0.419139,0.542960,0.441648,	0.000866266,	0.636232
0.397221,0.525518,0.453974,	0.000329787,	0.0352065
0.399256,0.526899,0.454725,	0.000783671,	0.470259
0.408722,0.542168,0.458559,	0.000479985,	0.108134
0.404676,0.531232,0.458921,	0.000460651,	0.0955606
0.395511,0.518018,0.430456,	0.000734728,	0.387272
0.393379,0.520155,0.450960,	0.000383633,	0.0553245
0.391143,0.530261,0.449506,	0.000768144,	0.443435
0.389534,0.528959,0.432043,	0.000539360,	0.153400
0.402139,0.512182,0.448443,	0.000481178,	0.108973
0.400430,0.496988,0.445168,	0.000431886,	0.0787956
0.384027,0.546389,0.445063,	0.000443966,	0.0855016
0.385517,0.509745,0.424616,	0.000612598,	0.224651
0.390464,0.518930,0.420891,	0.00108566,	1.24899
0.386148,0.511626,0.422948,	0.000477927,	0.107296
0.391098,0.518915,0.423749,	0.000662365,	0.284167
0.392230,0.514519,0.427866,	0.000442435,	0.0846633
0.414950,0.528544,0.428065,	0.000529647,	0.145017
0.390713,0.525796,0.423370,	0.000564850,	0.176033
0.402615,0.527161,0.421356,	0.000780924,	0.466906
0.389466,0.529603,0.428567,	0.000559550,	0.171003
0.403173,0.525046,0.418553,	0.000511721,	0.130767
0.427491,0.514529,0.428215,	0.000628422,	0.243093
0.431267,0.515812,0.427503,	0.000456684,	0.0930458
0.431040,0.511926,0.430095,	0.000626140,	0.239740
0.413702,0.514015,0.430666,	0.000790873,	0.482832
0.454429,0.504563,0.446279,	0.000541839,	0.155915
0.457713,0.512863,0.439374,	0.000430231,	0.0779573
0.447798,0.511952,0.445820,	0.000464560,	0.0980753
0.464342,0.513103,0.457975,	0.000508192,	0.128252
0.443286,0.514148,0.449231,	0.000651010,	0.269917
0.456679,0.515307,0.438037,	0.000430296,	0.0779573
0.442550,0.519998,0.445264,	0.000963126,	0.871781
0.442691,0.512020,0.451874,	0.000448132,	0.0880163
0.442377,0.517791,0.447193,	0.000652047,	0.270755
0.445312,0.513252,0.448552,	0.000517005,	0.134958
0.448007,0.510723,0.453182,	0.000610362,	0.222136
0.468831,0.514625,0.458326,	0.000490620,	0.115679
0.469108,0.512815,0.454778,	0.000512745,	0.131605
0.483651,0.447706,0.520124,	0.000624308,	0.238063
0.488702,0.488785,0.479435,	0.000761907,	0.432537
0.484375,0.476400,0.495280,	0.000523170,	0.139988
